<svg id="Raggruppa_462" data-name="Raggruppa 462" xmlns="http://www.w3.org/2000/svg" width="127" height="101" viewBox="0 0 127 101">
  <rect id="Rettangolo_337" data-name="Rettangolo 337" width="127" height="101" fill="#fff"/>
  <g id="Raggruppa_459" data-name="Raggruppa 459">
    <g id="Raggruppa_388" data-name="Raggruppa 388" transform="translate(852.044 -1163.104)">
      <g id="Raggruppa_387" data-name="Raggruppa 387" transform="translate(-845.925 1168.918)" opacity="0.11">
        <path id="Tracciato_94" data-name="Tracciato 94" d="M73.793,63.634a8.229,8.229,0,0,0,2.915,8c2.343,1.734,5.468,1.905,8.382,1.791a24.483,24.483,0,0,0,7.792-1.3,11.122,11.122,0,0,0,6.02-4.9,13.492,13.492,0,0,0,1.257-3.734c.514-2.534.591-5.506-1.257-7.315-1.562-1.524-4-1.715-6.153-1.353s-4.229,1.162-6.42,1.257C80.975,56.319,74.955,57.5,73.793,63.634Z" transform="translate(-65.677 -54.676)" fill="#ae1a00"/>
        <path id="Tracciato_95" data-name="Tracciato 95" d="M142.7,151.053c1.211-.088,2.034-8.983,1.984-9.867-.2-3.712-1.614-6.894-5.348-8.949-7.013-3.867-16.22-1.458-22.072-7.49-4.465-4.618-2.169-11.755,2.27-15.732,4.414-3.955,10.09-6.828,13.9-11.247,9.535-11.092,3.986-27.973-10.216-33.475a37.39,37.39,0,0,0-22.98-1.591C82.653,67.519,81.392,88.4,62.549,91.979c-7.517,1.436-16.018-.486-22.6,3a15.293,15.293,0,0,0-7.416,9.523,27.172,27.172,0,0,0-.177,11.755c2.018,12.4,8.058,22.682,15.877,33.067C115.191,147.045,111.343,152.975,142.7,151.053Z" transform="translate(-31.799 -60.256)" fill="#ae1a00"/>
        <path id="Tracciato_96" data-name="Tracciato 96" d="M42.1,150.787a3.109,3.109,0,0,1,3.22,1.657,5.124,5.124,0,0,1,.267,3.867,4.446,4.446,0,0,1-.591,1.3,3.582,3.582,0,0,1-5.087.5,4.659,4.659,0,0,1-.991-4.782A3.891,3.891,0,0,1,42.1,150.787Z" transform="translate(-37.352 -129.248)" fill="#ae1a00"/>
        <path id="Tracciato_97" data-name="Tracciato 97" d="M451.439,316c5.2-.019,5.391,8.078-.057,7.563a4.168,4.168,0,0,1-3.6-3.315C447.286,317.41,449.324,316,451.439,316Z" transform="translate(-340.841 -257.563)" fill="#ae1a00"/>
      </g>
      <rect id="Rettangolo_313" data-name="Rettangolo 313" width="69" height="62" transform="translate(-833.044 1186.104)" fill="#fff"/>
      <path id="Tracciato_1000" data-name="Tracciato 1000" d="M340.542,171.875h-66.8a1.382,1.382,0,0,0-1.38,1.38v65.107a1.381,1.381,0,0,0,1.38,1.38H279.6v-.394h-5.857a.987.987,0,0,1-.986-.986V173.255a.987.987,0,0,1,.986-.986h66.8a.988.988,0,0,1,.988.986v65.107a.978.978,0,0,1-.163.541,1.021,1.021,0,0,1-.374.336.979.979,0,0,1-.451.109h-5.857v.394h5.857a1.379,1.379,0,0,0,1.049-.484.311.311,0,0,0,.03-.038,1.29,1.29,0,0,0,.2-.334,1.344,1.344,0,0,0,.1-.524V173.255A1.382,1.382,0,0,0,340.542,171.875Z" transform="translate(-1105.367 1008.136)" fill="#3f3d56"/>
      <rect id="Rettangolo_314" data-name="Rettangolo 314" width="69.165" height="0.395" transform="translate(-832.806 1185.544)" fill="#3f3d56"/>
      <circle id="Ellisse_127" data-name="Ellisse 127" cx="1.184" cy="1.184" r="1.184" transform="translate(-830.636 1181.787)" fill="#3f3d56"/>
      <circle id="Ellisse_128" data-name="Ellisse 128" cx="1.184" cy="1.184" r="1.184" transform="translate(-827.232 1181.787)" fill="#3f3d56"/>
      <circle id="Ellisse_129" data-name="Ellisse 129" cx="1.184" cy="1.184" r="1.184" transform="translate(-823.829 1181.787)" fill="#3f3d56"/>
      <path id="Tracciato_1001" data-name="Tracciato 1001" d="M409.045,242.646h-33.4a2.058,2.058,0,0,1,0-4.115h33.4a2.058,2.058,0,0,1,0,4.115Zm-33.4-3.8a1.741,1.741,0,0,0,0,3.482h33.4a1.741,1.741,0,1,0,0-3.482Z" transform="translate(-1190.568 952.031)" fill="#3f3d56"/>
      <path id="Tracciato_1005" data-name="Tracciato 1005" d="M606.476,418.658h-4.432a1.266,1.266,0,1,1,0-2.533h4.432a1.266,1.266,0,0,1,0,2.533Z" transform="translate(-1381.796 802.548)" fill="#fff"/>
      <path id="Tracciato_1010" data-name="Tracciato 1010" d="M606.476,602.658h-4.432a1.266,1.266,0,1,1,0-2.533h4.432a1.266,1.266,0,0,1,0,2.533Z" transform="translate(-1381.796 647.673)" fill="#292929"/>
      <path id="Tracciato_1011" data-name="Tracciato 1011" d="M807.955,726.442h-22.16a.158.158,0,0,1,0-.317h22.16a.158.158,0,0,1,0,.317Z" transform="translate(-1548.198 531.716)" fill="#3f3d56"/>
      <rect id="Rettangolo_315" data-name="Rettangolo 315" width="56" height="20" rx="2" transform="translate(-826.044 1239.104)" fill="#313131"/>
      <rect id="Rettangolo_318" data-name="Rettangolo 318" width="56" height="20" rx="2" transform="translate(-826.044 1218.104)" fill="#313131"/>
      <rect id="Rettangolo_319" data-name="Rettangolo 319" width="56" height="20" rx="2" transform="translate(-826.044 1197.104)" fill="#313131"/>
      <path id="Tracciato_1013" data-name="Tracciato 1013" d="M432.239,543.158H415.963a1.27,1.27,0,0,1,0-2.533h16.276a1.27,1.27,0,0,1,0,2.533Z" transform="translate(-1222.567 704.755)" fill="#36c795"/>
      <path id="Tracciato_1030" data-name="Tracciato 1030" d="M432.239,543.158H415.963a1.27,1.27,0,0,1,0-2.533h16.276a1.27,1.27,0,0,1,0,2.533Z" transform="translate(-1222.567 683.755)" fill="#36c795"/>
      <path id="Tracciato_1032" data-name="Tracciato 1032" d="M432.239,543.158H415.963a1.27,1.27,0,0,1,0-2.533h16.276a1.27,1.27,0,0,1,0,2.533Z" transform="translate(-1222.567 662.755)" fill="#36c795"/>
      <path id="Tracciato_1014" data-name="Tracciato 1014" d="M447.342,570.158H415.963a1.27,1.27,0,0,1,0-2.533h31.379a1.27,1.27,0,0,1,0,2.533Z" transform="translate(-1222.567 682.029)" fill="#36c795"/>
      <path id="Tracciato_1031" data-name="Tracciato 1031" d="M447.342,570.158H415.963a1.27,1.27,0,0,1,0-2.533h31.379a1.27,1.27,0,0,1,0,2.533Z" transform="translate(-1222.567 661.029)" fill="#36c795"/>
      <path id="Tracciato_1033" data-name="Tracciato 1033" d="M447.342,570.158H415.963a1.27,1.27,0,0,1,0-2.533h31.379a1.27,1.27,0,0,1,0,2.533Z" transform="translate(-1222.567 640.029)" fill="#36c795"/>
      <g id="Raggruppa_394" data-name="Raggruppa 394" transform="translate(0 2.158)">
        <path id="Tracciato_1018" data-name="Tracciato 1018" d="M827.784,340.01c1.372,2.7,2.454,5.481,5.481,5.481a5.481,5.481,0,0,0,0-10.962C830.188,334.49,825.229,334.988,827.784,340.01Z" transform="translate(-1582.96 844.446)" fill="#2f2e41"/>
        <path id="Tracciato_1019" data-name="Tracciato 1019" d="M557.857,490.278l-2.342.522-3.128-8.787,3.457-.771Z" transform="translate(-1308.724 760.096)" fill="#a0616a"/>
        <path id="Tracciato_1020" data-name="Tracciato 1020" d="M826.916,697.722l-7.553,1.683-.021-.1a3.012,3.012,0,0,1,2.285-3.6h0l4.613-1.028Z" transform="translate(-1576.68 554.789)" fill="#2f2e41"/>
        <path id="Tracciato_1021" data-name="Tracciato 1021" d="M601.329,505.411h-2.4l-1.142-9.257h3.542Z" transform="translate(-1345.238 748.104)" fill="#a0616a"/>
        <path id="Tracciato_1022" data-name="Tracciato 1022" d="M859.578,714.424H851.84v-.1a3.012,3.012,0,0,1,3.012-3.012h4.726Z" transform="translate(-1602.875 541.417)" fill="#2f2e41"/>
        <path id="Tracciato_1023" data-name="Tracciato 1023" d="M823.15,566.665h-3.063a.884.884,0,0,1-.873-.762l-2.777-21.478a.294.294,0,0,0-.575-.036l-1.646,6.133L815.7,564.49a.88.88,0,0,1-.677.96l-2.43.561a.885.885,0,0,1-1.038-.593l-3.913-13.579a7.657,7.657,0,0,1-.319-3.083l1.224-12.241.093,0,16.344.788-.956,28.509A.877.877,0,0,1,823.15,566.665Z" transform="translate(-1567.043 681.999)" fill="#2f2e41"/>
        <ellipse id="Ellisse_132" data-name="Ellisse 132" cx="4.808" cy="4.808" rx="4.808" ry="4.808" transform="translate(-754.773 1180.427)" fill="#a0616a"/>
        <path id="Tracciato_1024" data-name="Tracciato 1024" d="M825.264,426.949h-.048l-16.3-.876a.881.881,0,0,1-.791-1.149l1.29-4.005a25.911,25.911,0,0,0,.685-13.287,8.292,8.292,0,0,1,1.473-6.684,8.169,8.169,0,0,1,5.9-3.259h0l.24-.017a8.255,8.255,0,0,1,8.651,9.465l-1.136,7.629L826.141,426a.881.881,0,0,1-.878.952Z" transform="translate(-1567.687 793.674)" fill="#ae1a00"/>
        <path id="Tracciato_1025" data-name="Tracciato 1025" d="M780.665,514.453a1.969,1.969,0,0,0,.307-3l3.138-6.252-3.61.427-2.426,5.872a1.979,1.979,0,0,0,2.591,2.956Z" transform="translate(-1543.141 707.184)" fill="#a0616a"/>
        <path id="Tracciato_1026" data-name="Tracciato 1026" d="M895.833,517.827a1.969,1.969,0,0,1,.2-3.012l-2.049-6.689,3.488,1.025,1.411,6.195a1.979,1.979,0,0,1-3.049,2.481Z" transform="translate(-1636.769 704.829)" fill="#a0616a"/>
        <path id="Tracciato_1027" data-name="Tracciato 1027" d="M880.34,432.241a.876.876,0,0,1-.872-.765l-1.63-12.3-2.6-9.61a2.778,2.778,0,0,1,2.613-3.5h0a2.788,2.788,0,0,1,2.806,2.309l3.875,22.7a.881.881,0,0,1-.831,1.028l-3.321.14Z" transform="translate(-1621.614 786.912)" fill="#ae1a00"/>
        <path id="Tracciato_1028" data-name="Tracciato 1028" d="M785.332,428.154a.9.9,0,0,1-.187-.02l-3.251-.693a.881.881,0,0,1-.648-1.153l7.613-21.73a2.793,2.793,0,0,1,3.152-1.808h0A2.778,2.778,0,0,1,794,406.64l-4.175,9.052-3.658,11.841A.876.876,0,0,1,785.332,428.154Z" transform="translate(-1546.061 789.617)" fill="#ae1a00"/>
        <path id="Tracciato_1029" data-name="Tracciato 1029" d="M831.247,342.062a6.539,6.539,0,0,0,3.737,1.155,4.008,4.008,0,0,1-1.588.653,13.184,13.184,0,0,0,5.386.03,3.481,3.481,0,0,0,1.128-.387,1.427,1.427,0,0,0,.7-.931,1.923,1.923,0,0,0-.954-1.7,7.041,7.041,0,0,0-5.917-1.182,3.24,3.24,0,0,0-1.752.99,1.6,1.6,0,0,0-.147,1.9Z" transform="translate(-1586.314 840.456)" fill="#2f2e41"/>
      </g>
    </g>
    <g id="Raggruppa_395" data-name="Raggruppa 395" transform="translate(30.055 39.529)">
      <path id="Tracciato_1034" data-name="Tracciato 1034" d="M-304.733,398.423h-1.2v-2.352h3.833v8.265h-2.634Z" transform="translate(305.931 -396.071)" fill="#36c795"/>
      <path id="Tracciato_1035" data-name="Tracciato 1035" d="M-250,398.144c1.526,0,2.533.758,2.533,2.058s-.961,2.1-2.487,2.1-2.6-.814-2.6-2.1S-251.535,398.144-250,398.144Zm.011,1.3c-.294,0-.656.2-.656.78a.694.694,0,0,0,.69.758c.271,0,.577-.2.577-.758C-249.375,399.648-249.714,399.444-249.986,399.444Z" transform="translate(257.21 -397.963)" fill="#36c795"/>
    </g>
    <g id="Raggruppa_396" data-name="Raggruppa 396" transform="translate(30.224 60.814)">
      <path id="Tracciato_1036" data-name="Tracciato 1036" d="M-303.953,646.442c1.594-1.2,3.279-2.589,3.279-3.776,0-.362-.17-.565-.43-.565s-.5.271-.452.938h-2.431A2.862,2.862,0,0,1-300.934,640c2.058,0,2.793,1.165,2.793,2.476a4.874,4.874,0,0,1-2.555,3.833h2.589v2.024h-5.845Z" transform="translate(303.987 -639.998)" fill="#36c795"/>
      <path id="Tracciato_1037" data-name="Tracciato 1037" d="M-228.359,644.145c1.526,0,2.533.757,2.533,2.058s-.961,2.1-2.487,2.1-2.6-.814-2.6-2.1S-229.9,644.145-228.359,644.145Zm.011,1.3c-.294,0-.656.2-.656.78a.694.694,0,0,0,.69.758c.271,0,.577-.2.577-.758C-227.737,645.649-228.076,645.445-228.348,645.445Z" transform="translate(237.291 -643.783)" fill="#36c795"/>
    </g>
    <g id="Raggruppa_397" data-name="Raggruppa 397" transform="translate(30.36 82.092)">
      <path id="Tracciato_1038" data-name="Tracciato 1038" d="M-299.426,838c1.832,0,2.8,1.018,2.8,2.306a1.807,1.807,0,0,1-1.21,1.843v.045a1.883,1.883,0,0,1,1.357,1.888c0,1.458-1.052,2.442-2.793,2.442-1.854,0-3.132-.814-3.166-2.894h2.442c-.034.531.136.825.611.825a.494.494,0,0,0,.475-.554c0-.407-.226-.645-.916-.645h-.418v-2.024h.407c.2.011.769.023.769-.61,0-.407-.2-.554-.418-.554-.362,0-.418.373-.418.7h-2.442A2.6,2.6,0,0,1-299.426,838Z" transform="translate(302.433 -837.998)" fill="#36c795"/>
      <path id="Tracciato_1039" data-name="Tracciato 1039" d="M-222.011,842.145c1.526,0,2.533.757,2.533,2.058s-.961,2.1-2.487,2.1-2.6-.814-2.6-2.1S-223.548,842.145-222.011,842.145Zm.011,1.3c-.294,0-.656.2-.656.78a.694.694,0,0,0,.69.758c.271,0,.577-.2.577-.758C-221.389,843.649-221.728,843.445-222,843.445Z" transform="translate(231.361 -841.783)" fill="#36c795"/>
    </g>
  </g>
  <g id="Raggruppa_460" data-name="Raggruppa 460" transform="translate(852.044 -1163.104)">
    <g id="Raggruppa_387-2" data-name="Raggruppa 387" transform="translate(-845.925 1168.918)" opacity="0.11">
      <path id="Tracciato_94-2" data-name="Tracciato 94" d="M73.793,63.634a8.229,8.229,0,0,0,2.915,8c2.343,1.734,5.468,1.905,8.382,1.791a24.483,24.483,0,0,0,7.792-1.3,11.122,11.122,0,0,0,6.02-4.9,13.492,13.492,0,0,0,1.257-3.734c.514-2.534.591-5.506-1.257-7.315-1.562-1.524-4-1.715-6.153-1.353s-4.229,1.162-6.42,1.257C80.975,56.319,74.955,57.5,73.793,63.634Z" transform="translate(-65.677 -54.676)" fill="#ae1a00"/>
      <path id="Tracciato_95-2" data-name="Tracciato 95" d="M142.7,151.053c1.211-.088,2.034-8.983,1.984-9.867-.2-3.712-1.614-6.894-5.348-8.949-7.013-3.867-16.22-1.458-22.072-7.49-4.465-4.618-2.169-11.755,2.27-15.732,4.414-3.955,10.09-6.828,13.9-11.247,9.535-11.092,3.986-27.973-10.216-33.475a37.39,37.39,0,0,0-22.98-1.591C82.653,67.519,81.392,88.4,62.549,91.979c-7.517,1.436-16.018-.486-22.6,3a15.293,15.293,0,0,0-7.416,9.523,27.172,27.172,0,0,0-.177,11.755c2.018,12.4,8.058,22.682,15.877,33.067C115.191,147.045,111.343,152.975,142.7,151.053Z" transform="translate(-31.799 -60.256)" fill="#ae1a00"/>
      <path id="Tracciato_96-2" data-name="Tracciato 96" d="M42.1,150.787a3.109,3.109,0,0,1,3.22,1.657,5.124,5.124,0,0,1,.267,3.867,4.446,4.446,0,0,1-.591,1.3,3.582,3.582,0,0,1-5.087.5,4.659,4.659,0,0,1-.991-4.782A3.891,3.891,0,0,1,42.1,150.787Z" transform="translate(-37.352 -129.248)" fill="#ae1a00"/>
      <path id="Tracciato_97-2" data-name="Tracciato 97" d="M451.439,316c5.2-.019,5.391,8.078-.057,7.563a4.168,4.168,0,0,1-3.6-3.315C447.286,317.41,449.324,316,451.439,316Z" transform="translate(-340.841 -257.563)" fill="#ae1a00"/>
    </g>
    <rect id="Rettangolo_313-2" data-name="Rettangolo 313" width="69" height="62" transform="translate(-833.044 1186.104)" fill="#fff"/>
    <path id="Tracciato_1000-2" data-name="Tracciato 1000" d="M340.542,171.875h-66.8a1.382,1.382,0,0,0-1.38,1.38v65.107a1.381,1.381,0,0,0,1.38,1.38H279.6v-.394h-5.857a.987.987,0,0,1-.986-.986V173.255a.987.987,0,0,1,.986-.986h66.8a.988.988,0,0,1,.988.986v65.107a.978.978,0,0,1-.163.541,1.021,1.021,0,0,1-.374.336.979.979,0,0,1-.451.109h-5.857v.394h5.857a1.379,1.379,0,0,0,1.049-.484.311.311,0,0,0,.03-.038,1.29,1.29,0,0,0,.2-.334,1.344,1.344,0,0,0,.1-.524V173.255A1.382,1.382,0,0,0,340.542,171.875Z" transform="translate(-1105.367 1008.136)" fill="#3f3d56"/>
    <rect id="Rettangolo_314-2" data-name="Rettangolo 314" width="69.165" height="0.395" transform="translate(-832.806 1185.544)" fill="#3f3d56"/>
    <circle id="Ellisse_127-2" data-name="Ellisse 127" cx="1.184" cy="1.184" r="1.184" transform="translate(-830.636 1181.787)" fill="#3f3d56"/>
    <circle id="Ellisse_128-2" data-name="Ellisse 128" cx="1.184" cy="1.184" r="1.184" transform="translate(-827.232 1181.787)" fill="#3f3d56"/>
    <circle id="Ellisse_129-2" data-name="Ellisse 129" cx="1.184" cy="1.184" r="1.184" transform="translate(-823.829 1181.787)" fill="#3f3d56"/>
    <path id="Tracciato_1001-2" data-name="Tracciato 1001" d="M409.045,242.646h-33.4a2.058,2.058,0,0,1,0-4.115h33.4a2.058,2.058,0,0,1,0,4.115Zm-33.4-3.8a1.741,1.741,0,0,0,0,3.482h33.4a1.741,1.741,0,1,0,0-3.482Z" transform="translate(-1190.568 952.031)" fill="#3f3d56"/>
    <path id="Tracciato_1005-2" data-name="Tracciato 1005" d="M606.476,418.658h-4.432a1.266,1.266,0,1,1,0-2.533h4.432a1.266,1.266,0,0,1,0,2.533Z" transform="translate(-1381.796 802.548)" fill="#fff"/>
    <path id="Tracciato_1010-2" data-name="Tracciato 1010" d="M606.476,602.658h-4.432a1.266,1.266,0,1,1,0-2.533h4.432a1.266,1.266,0,0,1,0,2.533Z" transform="translate(-1381.796 647.673)" fill="#292929"/>
    <path id="Tracciato_1011-2" data-name="Tracciato 1011" d="M807.955,726.442h-22.16a.158.158,0,0,1,0-.317h22.16a.158.158,0,0,1,0,.317Z" transform="translate(-1548.198 531.716)" fill="#3f3d56"/>
    <rect id="Rettangolo_315-2" data-name="Rettangolo 315" width="56" height="20" rx="2" transform="translate(-826.044 1239.104)" fill="#313131"/>
    <rect id="Rettangolo_318-2" data-name="Rettangolo 318" width="56" height="20" rx="2" transform="translate(-826.044 1218.104)" fill="#313131"/>
    <rect id="Rettangolo_319-2" data-name="Rettangolo 319" width="56" height="20" rx="2" transform="translate(-826.044 1197.104)" fill="#313131"/>
    <path id="Tracciato_1013-2" data-name="Tracciato 1013" d="M432.239,543.158H415.963a1.27,1.27,0,0,1,0-2.533h16.276a1.27,1.27,0,0,1,0,2.533Z" transform="translate(-1222.567 704.755)" fill="#36c795"/>
    <path id="Tracciato_1030-2" data-name="Tracciato 1030" d="M432.239,543.158H415.963a1.27,1.27,0,0,1,0-2.533h16.276a1.27,1.27,0,0,1,0,2.533Z" transform="translate(-1222.567 683.755)" fill="#36c795"/>
    <path id="Tracciato_1032-2" data-name="Tracciato 1032" d="M432.239,543.158H415.963a1.27,1.27,0,0,1,0-2.533h16.276a1.27,1.27,0,0,1,0,2.533Z" transform="translate(-1222.567 662.755)" fill="#36c795"/>
    <path id="Tracciato_1014-2" data-name="Tracciato 1014" d="M447.342,570.158H415.963a1.27,1.27,0,0,1,0-2.533h31.379a1.27,1.27,0,0,1,0,2.533Z" transform="translate(-1222.567 682.029)" fill="#36c795"/>
    <path id="Tracciato_1031-2" data-name="Tracciato 1031" d="M447.342,570.158H415.963a1.27,1.27,0,0,1,0-2.533h31.379a1.27,1.27,0,0,1,0,2.533Z" transform="translate(-1222.567 661.029)" fill="#36c795"/>
    <path id="Tracciato_1033-2" data-name="Tracciato 1033" d="M447.342,570.158H415.963a1.27,1.27,0,0,1,0-2.533h31.379a1.27,1.27,0,0,1,0,2.533Z" transform="translate(-1222.567 640.029)" fill="#36c795"/>
    <g id="Raggruppa_394-2" data-name="Raggruppa 394" transform="translate(0 2.158)">
      <path id="Tracciato_1018-2" data-name="Tracciato 1018" d="M827.784,340.01c1.372,2.7,2.454,5.481,5.481,5.481a5.481,5.481,0,0,0,0-10.962C830.188,334.49,825.229,334.988,827.784,340.01Z" transform="translate(-1582.96 844.446)" fill="#2f2e41"/>
      <path id="Tracciato_1019-2" data-name="Tracciato 1019" d="M557.857,490.278l-2.342.522-3.128-8.787,3.457-.771Z" transform="translate(-1308.724 760.096)" fill="#a0616a"/>
      <path id="Tracciato_1020-2" data-name="Tracciato 1020" d="M826.916,697.722l-7.553,1.683-.021-.1a3.012,3.012,0,0,1,2.285-3.6h0l4.613-1.028Z" transform="translate(-1576.68 554.789)" fill="#2f2e41"/>
      <path id="Tracciato_1021-2" data-name="Tracciato 1021" d="M601.329,505.411h-2.4l-1.142-9.257h3.542Z" transform="translate(-1345.238 748.104)" fill="#a0616a"/>
      <path id="Tracciato_1022-2" data-name="Tracciato 1022" d="M859.578,714.424H851.84v-.1a3.012,3.012,0,0,1,3.012-3.012h4.726Z" transform="translate(-1602.875 541.417)" fill="#2f2e41"/>
      <path id="Tracciato_1023-2" data-name="Tracciato 1023" d="M823.15,566.665h-3.063a.884.884,0,0,1-.873-.762l-2.777-21.478a.294.294,0,0,0-.575-.036l-1.646,6.133L815.7,564.49a.88.88,0,0,1-.677.96l-2.43.561a.885.885,0,0,1-1.038-.593l-3.913-13.579a7.657,7.657,0,0,1-.319-3.083l1.224-12.241.093,0,16.344.788-.956,28.509A.877.877,0,0,1,823.15,566.665Z" transform="translate(-1567.043 681.999)" fill="#2f2e41"/>
      <ellipse id="Ellisse_132-2" data-name="Ellisse 132" cx="4.808" cy="4.808" rx="4.808" ry="4.808" transform="translate(-754.773 1180.427)" fill="#a0616a"/>
      <path id="Tracciato_1024-2" data-name="Tracciato 1024" d="M825.264,426.949h-.048l-16.3-.876a.881.881,0,0,1-.791-1.149l1.29-4.005a25.911,25.911,0,0,0,.685-13.287,8.292,8.292,0,0,1,1.473-6.684,8.169,8.169,0,0,1,5.9-3.259h0l.24-.017a8.255,8.255,0,0,1,8.651,9.465l-1.136,7.629L826.141,426a.881.881,0,0,1-.878.952Z" transform="translate(-1567.687 793.674)" fill="#ae1a00"/>
      <path id="Tracciato_1025-2" data-name="Tracciato 1025" d="M780.665,514.453a1.969,1.969,0,0,0,.307-3l3.138-6.252-3.61.427-2.426,5.872a1.979,1.979,0,0,0,2.591,2.956Z" transform="translate(-1543.141 707.184)" fill="#a0616a"/>
      <path id="Tracciato_1026-2" data-name="Tracciato 1026" d="M895.833,517.827a1.969,1.969,0,0,1,.2-3.012l-2.049-6.689,3.488,1.025,1.411,6.195a1.979,1.979,0,0,1-3.049,2.481Z" transform="translate(-1636.769 704.829)" fill="#a0616a"/>
      <path id="Tracciato_1027-2" data-name="Tracciato 1027" d="M880.34,432.241a.876.876,0,0,1-.872-.765l-1.63-12.3-2.6-9.61a2.778,2.778,0,0,1,2.613-3.5h0a2.788,2.788,0,0,1,2.806,2.309l3.875,22.7a.881.881,0,0,1-.831,1.028l-3.321.14Z" transform="translate(-1621.614 786.912)" fill="#ae1a00"/>
      <path id="Tracciato_1028-2" data-name="Tracciato 1028" d="M785.332,428.154a.9.9,0,0,1-.187-.02l-3.251-.693a.881.881,0,0,1-.648-1.153l7.613-21.73a2.793,2.793,0,0,1,3.152-1.808h0A2.778,2.778,0,0,1,794,406.64l-4.175,9.052-3.658,11.841A.876.876,0,0,1,785.332,428.154Z" transform="translate(-1546.061 789.617)" fill="#ae1a00"/>
      <path id="Tracciato_1029-2" data-name="Tracciato 1029" d="M831.247,342.062a6.539,6.539,0,0,0,3.737,1.155,4.008,4.008,0,0,1-1.588.653,13.184,13.184,0,0,0,5.386.03,3.481,3.481,0,0,0,1.128-.387,1.427,1.427,0,0,0,.7-.931,1.923,1.923,0,0,0-.954-1.7,7.041,7.041,0,0,0-5.917-1.182,3.24,3.24,0,0,0-1.752.99,1.6,1.6,0,0,0-.147,1.9Z" transform="translate(-1586.314 840.456)" fill="#2f2e41"/>
    </g>
  </g>
  <g id="Raggruppa_461" data-name="Raggruppa 461" transform="translate(852.044 -1163.104)">
    <g id="Raggruppa_387-3" data-name="Raggruppa 387" transform="translate(-845.925 1168.918)" opacity="0.11">
      <path id="Tracciato_94-3" data-name="Tracciato 94" d="M73.793,63.634a8.229,8.229,0,0,0,2.915,8c2.343,1.734,5.468,1.905,8.382,1.791a24.483,24.483,0,0,0,7.792-1.3,11.122,11.122,0,0,0,6.02-4.9,13.492,13.492,0,0,0,1.257-3.734c.514-2.534.591-5.506-1.257-7.315-1.562-1.524-4-1.715-6.153-1.353s-4.229,1.162-6.42,1.257C80.975,56.319,74.955,57.5,73.793,63.634Z" transform="translate(-65.677 -54.676)" fill="#ae1a00"/>
      <path id="Tracciato_95-3" data-name="Tracciato 95" d="M142.7,151.053c1.211-.088,2.034-8.983,1.984-9.867-.2-3.712-1.614-6.894-5.348-8.949-7.013-3.867-16.22-1.458-22.072-7.49-4.465-4.618-2.169-11.755,2.27-15.732,4.414-3.955,10.09-6.828,13.9-11.247,9.535-11.092,3.986-27.973-10.216-33.475a37.39,37.39,0,0,0-22.98-1.591C82.653,67.519,81.392,88.4,62.549,91.979c-7.517,1.436-16.018-.486-22.6,3a15.293,15.293,0,0,0-7.416,9.523,27.172,27.172,0,0,0-.177,11.755c2.018,12.4,8.058,22.682,15.877,33.067C115.191,147.045,111.343,152.975,142.7,151.053Z" transform="translate(-31.799 -60.256)" fill="#ae1a00"/>
      <path id="Tracciato_96-3" data-name="Tracciato 96" d="M42.1,150.787a3.109,3.109,0,0,1,3.22,1.657,5.124,5.124,0,0,1,.267,3.867,4.446,4.446,0,0,1-.591,1.3,3.582,3.582,0,0,1-5.087.5,4.659,4.659,0,0,1-.991-4.782A3.891,3.891,0,0,1,42.1,150.787Z" transform="translate(-37.352 -129.248)" fill="#ae1a00"/>
      <path id="Tracciato_97-3" data-name="Tracciato 97" d="M451.439,316c5.2-.019,5.391,8.078-.057,7.563a4.168,4.168,0,0,1-3.6-3.315C447.286,317.41,449.324,316,451.439,316Z" transform="translate(-340.841 -257.563)" fill="#ae1a00"/>
    </g>
    <rect id="Rettangolo_313-3" data-name="Rettangolo 313" width="69" height="62" transform="translate(-833.044 1186.104)" fill="#fff"/>
    <path id="Tracciato_1000-3" data-name="Tracciato 1000" d="M340.542,171.875h-66.8a1.382,1.382,0,0,0-1.38,1.38v65.107a1.381,1.381,0,0,0,1.38,1.38H279.6v-.394h-5.857a.987.987,0,0,1-.986-.986V173.255a.987.987,0,0,1,.986-.986h66.8a.988.988,0,0,1,.988.986v65.107a.978.978,0,0,1-.163.541,1.021,1.021,0,0,1-.374.336.979.979,0,0,1-.451.109h-5.857v.394h5.857a1.379,1.379,0,0,0,1.049-.484.311.311,0,0,0,.03-.038,1.29,1.29,0,0,0,.2-.334,1.344,1.344,0,0,0,.1-.524V173.255A1.382,1.382,0,0,0,340.542,171.875Z" transform="translate(-1105.367 1008.136)" fill="#3f3d56"/>
    <rect id="Rettangolo_314-3" data-name="Rettangolo 314" width="69.165" height="0.395" transform="translate(-832.806 1185.544)" fill="#3f3d56"/>
    <circle id="Ellisse_127-3" data-name="Ellisse 127" cx="1.184" cy="1.184" r="1.184" transform="translate(-830.636 1181.787)" fill="#3f3d56"/>
    <circle id="Ellisse_128-3" data-name="Ellisse 128" cx="1.184" cy="1.184" r="1.184" transform="translate(-827.232 1181.787)" fill="#3f3d56"/>
    <circle id="Ellisse_129-3" data-name="Ellisse 129" cx="1.184" cy="1.184" r="1.184" transform="translate(-823.829 1181.787)" fill="#3f3d56"/>
    <path id="Tracciato_1001-3" data-name="Tracciato 1001" d="M409.045,242.646h-33.4a2.058,2.058,0,0,1,0-4.115h33.4a2.058,2.058,0,0,1,0,4.115Zm-33.4-3.8a1.741,1.741,0,0,0,0,3.482h33.4a1.741,1.741,0,1,0,0-3.482Z" transform="translate(-1190.568 952.031)" fill="#3f3d56"/>
    <path id="Tracciato_1005-3" data-name="Tracciato 1005" d="M606.476,418.658h-4.432a1.266,1.266,0,1,1,0-2.533h4.432a1.266,1.266,0,0,1,0,2.533Z" transform="translate(-1381.796 802.548)" fill="#fff"/>
    <path id="Tracciato_1010-3" data-name="Tracciato 1010" d="M606.476,602.658h-4.432a1.266,1.266,0,1,1,0-2.533h4.432a1.266,1.266,0,0,1,0,2.533Z" transform="translate(-1381.796 647.673)" fill="#292929"/>
    <path id="Tracciato_1011-3" data-name="Tracciato 1011" d="M807.955,726.442h-22.16a.158.158,0,0,1,0-.317h22.16a.158.158,0,0,1,0,.317Z" transform="translate(-1548.198 531.716)" fill="#3f3d56"/>
    <rect id="Rettangolo_315-3" data-name="Rettangolo 315" width="56" height="20" rx="2" transform="translate(-826.044 1239.104)" fill="#313131"/>
    <rect id="Rettangolo_318-3" data-name="Rettangolo 318" width="56" height="20" rx="2" transform="translate(-826.044 1218.104)" fill="#313131"/>
    <rect id="Rettangolo_319-3" data-name="Rettangolo 319" width="56" height="20" rx="2" transform="translate(-826.044 1197.104)" fill="#313131"/>
    <path id="Tracciato_1013-3" data-name="Tracciato 1013" d="M432.239,543.158H415.963a1.27,1.27,0,0,1,0-2.533h16.276a1.27,1.27,0,0,1,0,2.533Z" transform="translate(-1222.567 704.755)" fill="#36c795"/>
    <path id="Tracciato_1030-3" data-name="Tracciato 1030" d="M432.239,543.158H415.963a1.27,1.27,0,0,1,0-2.533h16.276a1.27,1.27,0,0,1,0,2.533Z" transform="translate(-1222.567 683.755)" fill="#36c795"/>
    <path id="Tracciato_1032-3" data-name="Tracciato 1032" d="M432.239,543.158H415.963a1.27,1.27,0,0,1,0-2.533h16.276a1.27,1.27,0,0,1,0,2.533Z" transform="translate(-1222.567 662.755)" fill="#36c795"/>
    <path id="Tracciato_1014-3" data-name="Tracciato 1014" d="M447.342,570.158H415.963a1.27,1.27,0,0,1,0-2.533h31.379a1.27,1.27,0,0,1,0,2.533Z" transform="translate(-1222.567 682.029)" fill="#36c795"/>
    <path id="Tracciato_1031-3" data-name="Tracciato 1031" d="M447.342,570.158H415.963a1.27,1.27,0,0,1,0-2.533h31.379a1.27,1.27,0,0,1,0,2.533Z" transform="translate(-1222.567 661.029)" fill="#36c795"/>
    <path id="Tracciato_1033-3" data-name="Tracciato 1033" d="M447.342,570.158H415.963a1.27,1.27,0,0,1,0-2.533h31.379a1.27,1.27,0,0,1,0,2.533Z" transform="translate(-1222.567 640.029)" fill="#36c795"/>
    <g id="Raggruppa_394-3" data-name="Raggruppa 394" transform="translate(0 2.158)">
      <path id="Tracciato_1018-3" data-name="Tracciato 1018" d="M827.784,340.01c1.372,2.7,2.454,5.481,5.481,5.481a5.481,5.481,0,0,0,0-10.962C830.188,334.49,825.229,334.988,827.784,340.01Z" transform="translate(-1582.96 844.446)" fill="#2f2e41"/>
      <path id="Tracciato_1019-3" data-name="Tracciato 1019" d="M557.857,490.278l-2.342.522-3.128-8.787,3.457-.771Z" transform="translate(-1308.724 760.096)" fill="#a0616a"/>
      <path id="Tracciato_1020-3" data-name="Tracciato 1020" d="M826.916,697.722l-7.553,1.683-.021-.1a3.012,3.012,0,0,1,2.285-3.6h0l4.613-1.028Z" transform="translate(-1576.68 554.789)" fill="#2f2e41"/>
      <path id="Tracciato_1021-3" data-name="Tracciato 1021" d="M601.329,505.411h-2.4l-1.142-9.257h3.542Z" transform="translate(-1345.238 748.104)" fill="#a0616a"/>
      <path id="Tracciato_1022-3" data-name="Tracciato 1022" d="M859.578,714.424H851.84v-.1a3.012,3.012,0,0,1,3.012-3.012h4.726Z" transform="translate(-1602.875 541.417)" fill="#2f2e41"/>
      <path id="Tracciato_1023-3" data-name="Tracciato 1023" d="M823.15,566.665h-3.063a.884.884,0,0,1-.873-.762l-2.777-21.478a.294.294,0,0,0-.575-.036l-1.646,6.133L815.7,564.49a.88.88,0,0,1-.677.96l-2.43.561a.885.885,0,0,1-1.038-.593l-3.913-13.579a7.657,7.657,0,0,1-.319-3.083l1.224-12.241.093,0,16.344.788-.956,28.509A.877.877,0,0,1,823.15,566.665Z" transform="translate(-1567.043 681.999)" fill="#2f2e41"/>
      <ellipse id="Ellisse_132-3" data-name="Ellisse 132" cx="4.808" cy="4.808" rx="4.808" ry="4.808" transform="translate(-754.773 1180.427)" fill="#a0616a"/>
      <path id="Tracciato_1024-3" data-name="Tracciato 1024" d="M825.264,426.949h-.048l-16.3-.876a.881.881,0,0,1-.791-1.149l1.29-4.005a25.911,25.911,0,0,0,.685-13.287,8.292,8.292,0,0,1,1.473-6.684,8.169,8.169,0,0,1,5.9-3.259h0l.24-.017a8.255,8.255,0,0,1,8.651,9.465l-1.136,7.629L826.141,426a.881.881,0,0,1-.878.952Z" transform="translate(-1567.687 793.674)" fill="#ae1a00"/>
      <path id="Tracciato_1025-3" data-name="Tracciato 1025" d="M780.665,514.453a1.969,1.969,0,0,0,.307-3l3.138-6.252-3.61.427-2.426,5.872a1.979,1.979,0,0,0,2.591,2.956Z" transform="translate(-1543.141 707.184)" fill="#a0616a"/>
      <path id="Tracciato_1026-3" data-name="Tracciato 1026" d="M895.833,517.827a1.969,1.969,0,0,1,.2-3.012l-2.049-6.689,3.488,1.025,1.411,6.195a1.979,1.979,0,0,1-3.049,2.481Z" transform="translate(-1636.769 704.829)" fill="#a0616a"/>
      <path id="Tracciato_1027-3" data-name="Tracciato 1027" d="M880.34,432.241a.876.876,0,0,1-.872-.765l-1.63-12.3-2.6-9.61a2.778,2.778,0,0,1,2.613-3.5h0a2.788,2.788,0,0,1,2.806,2.309l3.875,22.7a.881.881,0,0,1-.831,1.028l-3.321.14Z" transform="translate(-1621.614 786.912)" fill="#ae1a00"/>
      <path id="Tracciato_1028-3" data-name="Tracciato 1028" d="M785.332,428.154a.9.9,0,0,1-.187-.02l-3.251-.693a.881.881,0,0,1-.648-1.153l7.613-21.73a2.793,2.793,0,0,1,3.152-1.808h0A2.778,2.778,0,0,1,794,406.64l-4.175,9.052-3.658,11.841A.876.876,0,0,1,785.332,428.154Z" transform="translate(-1546.061 789.617)" fill="#ae1a00"/>
      <path id="Tracciato_1029-3" data-name="Tracciato 1029" d="M831.247,342.062a6.539,6.539,0,0,0,3.737,1.155,4.008,4.008,0,0,1-1.588.653,13.184,13.184,0,0,0,5.386.03,3.481,3.481,0,0,0,1.128-.387,1.427,1.427,0,0,0,.7-.931,1.923,1.923,0,0,0-.954-1.7,7.041,7.041,0,0,0-5.917-1.182,3.24,3.24,0,0,0-1.752.99,1.6,1.6,0,0,0-.147,1.9Z" transform="translate(-1586.314 840.456)" fill="#2f2e41"/>
    </g>
  </g>
</svg>
