<svg id="Raggruppa_475" data-name="Raggruppa 475" xmlns="http://www.w3.org/2000/svg" width="127" height="101" viewBox="0 0 127 101">
  <rect id="Rettangolo_343" data-name="Rettangolo 343" width="127" height="101" fill="#fff"/>
  <g id="Raggruppa_474" data-name="Raggruppa 474">
    <g id="Raggruppa_390" data-name="Raggruppa 390" transform="translate(-19.325 -48.064)" opacity="0.11">
      <path id="Tracciato_94" data-name="Tracciato 94" d="M73.815,64.979a9.464,9.464,0,0,0,3.352,9.2c2.695,1.994,6.288,2.191,9.64,2.059a28.158,28.158,0,0,0,8.961-1.49,12.791,12.791,0,0,0,6.923-5.631,15.516,15.516,0,0,0,1.446-4.294c.592-2.914.679-6.332-1.446-8.413-1.8-1.753-4.6-1.972-7.077-1.556s-4.864,1.336-7.384,1.446C82.074,56.565,75.151,57.924,73.815,64.979Z" transform="translate(-32.682)" fill="#ae1a00"/>
      <path id="Tracciato_95" data-name="Tracciato 95" d="M128.684,149.827c1.052-.088,1.205-8.435,1.161-9.312-.175-3.681-1.4-6.836-4.645-8.873-6.091-3.834-14.088-1.446-19.171-7.427-3.878-4.579-1.884-11.656,1.972-15.6,3.834-3.922,8.764-6.77,12.072-11.152,8.282-11,3.462-27.737-8.873-33.193-6.244-2.761-13.452-3.615-19.96-1.577-15.271,4.776-16.366,25.481-32.733,29.03-6.529,1.424-13.913-.482-19.631,2.98a15.038,15.038,0,0,0-6.441,9.443,30.672,30.672,0,0,0-.153,11.656c1.753,12.291,7.055,24.626,13.847,34.924C73.384,151.558,101.45,151.734,128.684,149.827Z" transform="translate(0 -5.383)" fill="#ae1a00"/>
      <path id="Tracciato_96" data-name="Tracciato 96" d="M42.611,150.791a3.576,3.576,0,0,1,3.7,1.906,5.893,5.893,0,0,1,.307,4.448,5.113,5.113,0,0,1-.679,1.49,4.119,4.119,0,0,1-5.85.57,5.359,5.359,0,0,1-1.139-5.5A4.475,4.475,0,0,1,42.611,150.791Z" transform="translate(-5.356 -75.033)" fill="#ae1a00"/>
      <path id="Tracciato_97" data-name="Tracciato 97" d="M452,316c5.981-.022,6.2,9.29-.066,8.7a4.794,4.794,0,0,1-4.141-3.812C447.223,317.621,449.567,316,452,316Z" transform="translate(-324.783 -204.069)" fill="#ae1a00"/>
    </g>
    <g id="Raggruppa_418" data-name="Raggruppa 418" transform="translate(-0.196 6.401)">
      <g id="Raggruppa_417" data-name="Raggruppa 417">
        <g id="Raggruppa_416" data-name="Raggruppa 416">
          <path id="Tracciato_1085" data-name="Tracciato 1085" d="M54.6,35.8a15.662,15.662,0,0,1,5.1,4.1c3.5.8,6.8,2.1,8.3,4.1,3.6,5.1-11.1,7-18.8,7.4S30.7,49.3,27.7,46c-2-2.2,3.2-4.6,9.4-6a16.433,16.433,0,0,1,5.3-4.2c-10,1.1-28.5,5.1-28.2,15.4.2,4.9,6.6,6.4,14,6.6.5,5.3.5,21-1.4,26.6-2,5.7,11.1,8.2,20.3,8.2,9,0,18.5-2.2,21-5.3,2.4-3-3.1-11.5-1-30.2,7.4-.8,13.6-2.7,13.8-7.7C81.1,41.6,66.4,37.1,54.6,35.8ZM47,63.6c-7.4.2-16.1-2.2-17.6-3.6l-.2-2.2c6.6.1,13.9-.6,18-.5,4.5.1,11.9.4,18.6-.1l-.2,2.6C64,62.1,53.3,63.4,47,63.6Z" fill="#ae1a00" fill-rule="evenodd"/>
          <path id="Tracciato_1086" data-name="Tracciato 1086" d="M43.9,36.7a14.967,14.967,0,0,0-8.5,9.4c-.6,1.5,2.9,3,7.8,3.5a29.108,29.108,0,0,0,4.2.1c7.2-.3,13.8-1.1,13.7-1.9a12.966,12.966,0,0,0-7.7-10.7c1.9-2.6,4.1-8.5,5.7-15.4,2.3-9.8,2.6-18.1.7-18.6-2-.5-5.4,7.1-7.8,16.9-1.6,6.8-2.2,12.9-1.8,16.1a3.4,3.4,0,0,0-1-.1,9.638,9.638,0,0,0-2.4,0c1-3,1.5-9.3,1.2-16.4-.5-10.1-2.6-18.1-4.6-18S40.2,10,40.7,20C41.2,27.6,42.5,34.1,43.9,36.7Zm10.2,6.7a1.856,1.856,0,1,1-2,1.7A1.814,1.814,0,0,1,54.1,43.4Zm-9,1a1.856,1.856,0,1,1-1.7-2A1.814,1.814,0,0,1,45.1,44.4Z" fill="#ae1a00" fill-rule="evenodd"/>
        </g>
      </g>
    </g>
    <path id="Tracciato_1087" data-name="Tracciato 1087" d="M54,73.3a3.96,3.96,0,0,0-1.3-1.9,3.268,3.268,0,0,0-1.5-.6,8.552,8.552,0,0,0-1.6,0,4.712,4.712,0,0,1-2.2-.7c1.3,2,2.4,2.4,2.8,2.5h.1a3.637,3.637,0,0,1,1.9.6,3.208,3.208,0,0,1,.9,1.2,5.8,5.8,0,0,0-.9-1,4.5,4.5,0,0,0-1.9-.6h-.2a4.623,4.623,0,0,1-2.8-2.1l-.3-.6c-.1-.2-.1-.3-.2-.4s-.2-.4-.4-.3a.451.451,0,0,0-.3.3V70c-1,.3-3.8,1.3-4.1,2.9a7.477,7.477,0,0,1-.8,2.2,1.076,1.076,0,0,1-.5.4,6.2,6.2,0,0,0,2.3-.1,4.927,4.927,0,0,0,2.7-1.6c-.1.6-.2,1.2-.3,1.7a43.551,43.551,0,0,1-1.2,4.4A3.244,3.244,0,0,0,41,83.2a3.329,3.329,0,0,0,3.3,3.3,3.235,3.235,0,0,0,3.2-2.7,3.246,3.246,0,0,0,2.2,1,3.154,3.154,0,0,0,.3-6.3h-.1c-.1-.3-.8-3-1-3.7a12.13,12.13,0,0,0-.5-1.4l.1.1a2.836,2.836,0,0,0,1,.9,15.619,15.619,0,0,0,2.7.6,1.806,1.806,0,0,1,1.1.7S54.3,74.3,54,73.3Zm-8.8-.8a20.728,20.728,0,0,1-2.9,2.3,29.75,29.75,0,0,0,2.6-2.6,10.917,10.917,0,0,0,1.3-1.7,1.952,1.952,0,0,1-.1.7A5.084,5.084,0,0,1,45.2,72.5Zm0,13.1-.1.1a4.874,4.874,0,0,1-.7.3,1.7,1.7,0,0,1-.7-.1A3,3,0,0,1,41.8,84a3.334,3.334,0,0,1,0-1c0-.1.1-.2.1-.3l.1-.1h0v.8a2.444,2.444,0,0,0,2.3,2.1h.1l.8.1Zm4.9-6.5a1.952,1.952,0,0,1,.7.1,2.523,2.523,0,0,1,1.7,1.9,1.412,1.412,0,0,1-.1.9.349.349,0,0,1-.1.2l-.1.1h0v-.8a2.258,2.258,0,0,0-2.1-2.1h-.8l.1-.1A6.374,6.374,0,0,0,50.1,79.1Zm-.7-.5a3.353,3.353,0,0,0-2.5,2.5,3.247,3.247,0,0,0-1.8-1c.3-1,.9-2.8,1.2-4.3.3-1.6.5-3.5.6-4.7.5,1.1,1.1,2.7,1.5,3.9C48.6,75.7,49.2,78,49.4,78.6Z" transform="translate(-0.196 6.401)" fill="#fff"/>
    <g id="Raggruppa_419" data-name="Raggruppa 419" transform="translate(-966.916 1400.482)">
      <path id="Tracciato_1093" data-name="Tracciato 1093" d="M724.011,414.2a2.276,2.276,0,0,1,.887-3.376l6.307-19.749,4.393,2.282-7.581,18.7a2.289,2.289,0,0,1-4.006,2.148Z" transform="translate(316 -1761.992)" fill="#9f616a"/>
      <path id="Tracciato_1094" data-name="Tracciato 1094" d="M747.927,377.369a1.019,1.019,0,0,1,0-.85l2.16-4.645a2.834,2.834,0,0,1,5.44,1.594l-.722,5.088a1.021,1.021,0,0,1-1.3.835l-4.942-1.464A1.02,1.02,0,0,1,747.927,377.369Z" transform="translate(297.236 -1745.557)" fill="#ae1a00"/>
      <path id="Tracciato_1095" data-name="Tracciato 1095" d="M599.2,209.183l-.352,4.933-11.98,4.228-.176-4.757Z" transform="translate(464.181 -1576.587)" fill="#9f616a"/>
      <path id="Tracciato_1096" data-name="Tracciato 1096" d="M756.014,358.992l3.876-2.819,6.342-1.762,5.285,1.057.881,8.28-1.057,5.285L757.6,372.206l-1.409-2.466s-3.171-3.171-.7-6.695Z" transform="translate(292.044 -1733.62)" fill="#ae1a00"/>
      <path id="Tracciato_1097" data-name="Tracciato 1097" d="M754.8,301.572v-4.627a7.381,7.381,0,0,1,14.762,0v4.627a.993.993,0,0,1-.991.991H755.8A.993.993,0,0,1,754.8,301.572Z" transform="translate(291.844 -1683.435)" fill="#2f2e41"/>
      <circle id="Ellisse_140" data-name="Ellisse 140" cx="5.411" cy="5.411" r="5.411" transform="translate(1048.321 -1391.739)" fill="#9f616a"/>
      <path id="Tracciato_1098" data-name="Tracciato 1098" d="M761.085,300.666a.551.551,0,0,1-.129-.439l.641-4.464a.551.551,0,0,1,.312-.423,11.172,11.172,0,0,1,9.862-.006.555.555,0,0,1,.315.449l.428,4.469a.551.551,0,0,1-.548.6H770.88a.553.553,0,0,1-.5-.318l-.468-1a.33.33,0,0,0-.627.1l-.093.74a.552.552,0,0,1-.547.483H761.5a.551.551,0,0,1-.416-.19Z" transform="translate(287.087 -1687.015)" fill="#2f2e41"/>
      <path id="Tracciato_1099" data-name="Tracciato 1099" d="M831.319,403.474a2.276,2.276,0,0,1-1.577-3.114L821.35,381.4l4.8-1.209,6.739,19.015a2.289,2.289,0,0,1-1.57,4.265Z" transform="translate(240.345 -1753.573)" fill="#9f616a"/>
      <path id="Tracciato_1100" data-name="Tracciato 1100" d="M814.745,367.74a1.02,1.02,0,0,1-.56-.639l-1.467-4.908a2.834,2.834,0,0,1,5.127-2.418l2.837,4.285a1.021,1.021,0,0,1-.418,1.488l-4.669,2.185A1.02,1.02,0,0,1,814.745,367.74Z" transform="translate(247.235 -1736.512)" fill="#ae1a00"/>
      <path id="Tracciato_1101" data-name="Tracciato 1101" d="M623.926,450.034h-3.054l-1.453-11.78h4.508Z" transform="translate(438.857 -1753.864)" fill="#9f616a"/>
      <path id="Tracciato_1102" data-name="Tracciato 1102" d="M795.9,687.338h-9.848v-.125a3.833,3.833,0,0,1,3.833-3.833H795.9Z" transform="translate(267.662 -1988.208)" fill="#2f2e41"/>
      <path id="Tracciato_1103" data-name="Tracciato 1103" d="M589.069,352.859l-2.082,2.234-9.609-6.968,3.073-3.3Z" transform="translate(471.392 -1681.563)" fill="#9f616a"/>
      <path id="Tracciato_1104" data-name="Tracciato 1104" d="M800.357,574.954l-6.714,7.2-.091-.085a3.833,3.833,0,0,1-.191-5.417h0l4.1-4.4Z" transform="translate(262.802 -1902.209)" fill="#2f2e41"/>
      <path id="Tracciato_1105" data-name="Tracciato 1105" d="M750.5,424.069l.977.977c4.886,4.886,6.089,11.661,5.5,18.546a19.27,19.27,0,0,1-.489,3.028c-1.762,7.047-.7,29.6-4.228,31.007l-.7,2.466-6.871-.254.176-2.213s-1.586-3.347-.529-5.461,3.347-17.794,3.347-17.794l-1.233-12.861-9.161,4.581s4.757,2.643,4.4,4.4c0,0,2.819.7,2.114,2.466l1.057,2.114-2.467,3.876s-16.561-9.866-15.151-14.8,10.218-8.457,10.218-8.457l.7-5.285-.608-2.88,12.326-4.738Z" transform="translate(313.241 -1786.54)" fill="#2f2e41"/>
    </g>
  </g>
</svg>
