<svg id="Raggruppa_463" data-name="Raggruppa 463" xmlns="http://www.w3.org/2000/svg" width="127" height="101" viewBox="0 0 127 101">
  <rect id="Rettangolo_336" data-name="Rettangolo 336" width="127" height="101" fill="#fff"/>
  <g id="Raggruppa_458" data-name="Raggruppa 458">
    <g id="Raggruppa_390" data-name="Raggruppa 390" transform="translate(-19.325 -48.064)" opacity="0.11">
      <path id="Tracciato_94" data-name="Tracciato 94" d="M73.815,64.979a9.464,9.464,0,0,0,3.352,9.2c2.695,1.994,6.288,2.191,9.64,2.059a28.158,28.158,0,0,0,8.961-1.49,12.791,12.791,0,0,0,6.923-5.631,15.516,15.516,0,0,0,1.446-4.294c.592-2.914.679-6.332-1.446-8.413-1.8-1.753-4.6-1.972-7.077-1.556s-4.864,1.336-7.384,1.446C82.074,56.565,75.151,57.924,73.815,64.979Z" transform="translate(-32.682)" fill="#ae1a00"/>
      <path id="Tracciato_95" data-name="Tracciato 95" d="M128.684,149.827c1.052-.088,1.205-8.435,1.161-9.312-.175-3.681-1.4-6.836-4.645-8.873-6.091-3.834-14.088-1.446-19.171-7.427-3.878-4.579-1.884-11.656,1.972-15.6,3.834-3.922,8.764-6.77,12.072-11.152,8.282-11,3.462-27.737-8.873-33.193-6.244-2.761-13.452-3.615-19.96-1.577-15.271,4.776-16.366,25.481-32.733,29.03-6.529,1.424-13.913-.482-19.631,2.98a15.038,15.038,0,0,0-6.441,9.443,30.672,30.672,0,0,0-.153,11.656c1.753,12.291,7.055,24.626,13.847,34.924C73.384,151.558,101.45,151.734,128.684,149.827Z" transform="translate(0 -5.383)" fill="#ae1a00"/>
      <path id="Tracciato_96" data-name="Tracciato 96" d="M42.611,150.791a3.576,3.576,0,0,1,3.7,1.906,5.893,5.893,0,0,1,.307,4.448,5.113,5.113,0,0,1-.679,1.49,4.119,4.119,0,0,1-5.85.57,5.359,5.359,0,0,1-1.139-5.5A4.475,4.475,0,0,1,42.611,150.791Z" transform="translate(-5.356 -75.033)" fill="#ae1a00"/>
      <path id="Tracciato_97" data-name="Tracciato 97" d="M452,316c5.981-.022,6.2,9.29-.066,8.7a4.794,4.794,0,0,1-4.141-3.812C447.223,317.621,449.567,316,452,316Z" transform="translate(-324.783 -204.069)" fill="#ae1a00"/>
    </g>
    <g id="Raggruppa_389" data-name="Raggruppa 389" transform="translate(-1525 897)">
      <circle id="Ellisse_87" data-name="Ellisse 87" cx="6.978" cy="6.978" r="6.978" transform="translate(1549.599 -859.637)" fill="#c8141d"/>
      <path id="Tracciato_365" data-name="Tracciato 365" d="M438.74,251.562c0,13.739-8.167,18.536-18.242,18.536s-18.243-4.8-18.243-18.536S420.5,220.346,420.5,220.346,438.74,237.823,438.74,251.562Z" transform="translate(1161.068 -1096.319)" fill="#c8141d"/>
      <path id="Tracciato_366" data-name="Tracciato 366" d="M350.991,181.948l.187-11.5,7.775-14.225-7.746,12.421.084-5.17,5.359-10.291-5.337,8.923h0l.151-9.3,5.738-8.193-5.715,6.731.094-17.05-.593,22.571.049-.931-5.834-8.93,5.741,10.718-.544,10.385-.016-.276-6.726-9.4,6.705,10.371-.068,1.3-.012.02.006.107-1.379,26.347h1.843l.221-13.609,6.689-10.346Z" transform="translate(1229.911 -1010.271)" fill="#fff"/>
      <path id="Tracciato_367" data-name="Tracciato 367" d="M577.573,353.913c0,13.739-8.168,18.536-18.243,18.536s-18.242-4.8-18.242-18.536S559.33,322.7,559.33,322.7,577.573,340.174,577.573,353.913Z" transform="translate(1039.838 -1185.694)" fill="#ad1900"/>
      <path id="Tracciato_368" data-name="Tracciato 368" d="M489.823,284.3l.187-11.5,7.775-14.225L490.039,271l.084-5.17,5.359-10.291-5.337,8.923h0l.151-9.3,5.738-8.193L490.32,253.7l.094-17.05-.593,22.571.049-.931-5.834-8.93,5.741,10.718-.544,10.385-.016-.276-6.726-9.4,6.705,10.371-.068,1.3-.012.02.006.107-1.379,26.347h1.843l.221-13.609,6.689-10.346Z" transform="translate(1108.68 -1099.644)" fill="#f2f2f2"/>
      <path id="Tracciato_369" data-name="Tracciato 369" d="M307,353.913c0,13.739-8.167,18.536-18.243,18.536s-18.242-4.8-18.242-18.536S288.759,322.7,288.759,322.7,307,340.174,307,353.913Z" transform="translate(1276.105 -1185.694)" fill="#ad1900"/>
      <path id="Tracciato_370" data-name="Tracciato 370" d="M219.252,284.3l.187-11.5,7.775-14.225L219.468,271l.084-5.17,5.359-10.291-5.337,8.923h0l.151-9.3,5.738-8.193-5.715,6.731.094-17.05-.593,22.571.049-.931-5.834-8.93,5.741,10.718-.544,10.385-.016-.276-6.726-9.4,6.705,10.371-.068,1.3-.012.02.006.107-1.379,26.347h1.843l.221-13.609,6.689-10.346Z" transform="translate(1344.948 -1099.644)" fill="#f2f2f2"/>
      <path id="Tracciato_371" data-name="Tracciato 371" d="M290.032,293.512A37.713,37.713,0,1,1,316.7,282.466a37.713,37.713,0,0,1-26.667,11.046Zm0-75.138A37.425,37.425,0,1,0,327.457,255.8a37.467,37.467,0,0,0-37.425-37.425Z" transform="translate(1291.999 -1094.343)" fill="#2f2e41"/>
      <path id="Tracciato_372" data-name="Tracciato 372" d="M228.876,488.622v16.06H167.207v-16.06l30.835-16.06.064.033Z" transform="translate(1383.992 -1305.65)" fill="#f2f2f2"/>
      <path id="Tracciato_373" data-name="Tracciato 373" d="M441.693,488.852v16.06H410.923V472.825Z" transform="translate(1171.175 -1305.879)" opacity="0.1"/>
      <path id="Tracciato_374" data-name="Tracciato 374" d="M373.715,525.406l-2.312.873v-3.443l2.313-1.014Z" transform="translate(1205.685 -1348.665)" fill="#3f3d56"/>
      <path id="Tracciato_375" data-name="Tracciato 375" d="M182.672,611.352l-.771.292v-2.09l.771-.341Z" transform="translate(1371.161 -1424.975)" fill="#3f3d56"/>
      <path id="Tracciato_376" data-name="Tracciato 376" d="M203.067,603l-.9.337v-2.264l.9-.395Z" transform="translate(1353.463 -1417.525)" fill="#3f3d56"/>
      <path id="Tracciato_377" data-name="Tracciato 377" d="M225.49,592.6l-1.028.386v-2.442l1.028-.452Z" transform="translate(1333.996 -1408.279)" fill="#3f3d56"/>
      <path id="Tracciato_378" data-name="Tracciato 378" d="M252.095,580.686l-1.285.485v-2.54l1.285-.564Z" transform="translate(1310.988 -1397.778)" fill="#3f3d56"/>
      <path id="Tracciato_379" data-name="Tracciato 379" d="M284.78,565.852l-1.542.583v-2.767l1.542-.676Z" transform="translate(1282.672 -1384.615)" fill="#3f3d56"/>
      <path id="Tracciato_380" data-name="Tracciato 380" d="M324.559,548.109l-1.8.678v-3.119l1.8-.788Z" transform="translate(1248.16 -1368.798)" fill="#3f3d56"/>
      <path id="Tracciato_381" data-name="Tracciato 381" d="M182.672,644.577l-.771.194V642.65l.771-.244Z" transform="translate(1371.161 -1453.96)" fill="#3f3d56"/>
      <path id="Tracciato_382" data-name="Tracciato 382" d="M203.067,638.352l-.9.225V636.3l.9-.284Z" transform="translate(1353.463 -1448.378)" fill="#3f3d56"/>
      <path id="Tracciato_383" data-name="Tracciato 383" d="M225.49,631.106l-1.028.258v-2.442l1.028-.324Z" transform="translate(1333.996 -1441.903)" fill="#3f3d56"/>
      <path id="Tracciato_384" data-name="Tracciato 384" d="M252.095,622.576l-1.285.323v-2.635l1.285-.4Z" transform="translate(1310.988 -1434.272)" fill="#3f3d56"/>
      <path id="Tracciato_385" data-name="Tracciato 385" d="M284.78,612.015l-1.542.389v-2.83l1.542-.485Z" transform="translate(1282.672 -1424.867)" fill="#3f3d56"/>
      <path id="Tracciato_386" data-name="Tracciato 386" d="M323.673,599.275l-1.927.485v-3.183l1.927-.607Z" transform="translate(1249.046 -1413.412)" fill="#3f3d56"/>
      <path id="Tracciato_387" data-name="Tracciato 387" d="M373.715,583.511l-2.312.581v-3.536l2.313-.725Z" transform="translate(1205.685 -1399.319)" fill="#3f3d56"/>
      <path id="Tracciato_388" data-name="Tracciato 388" d="M373.715,641.488l-2.312.294v-3.506l2.313-.437Z" transform="translate(1205.685 -1449.972)" fill="#3f3d56"/>
      <path id="Tracciato_389" data-name="Tracciato 389" d="M182.672,677.672l-.771.1v-2.026l.771-.147Z" transform="translate(1371.161 -1482.944)" fill="#3f3d56"/>
      <path id="Tracciato_390" data-name="Tracciato 390" d="M203.067,674.61l-.9.113v-2.169l.9-.169Z" transform="translate(1353.463 -1480.139)" fill="#3f3d56"/>
      <path id="Tracciato_391" data-name="Tracciato 391" d="M225.49,669.613l-1.028.13V667.3l1.028-.2Z" transform="translate(1333.996 -1475.528)" fill="#3f3d56"/>
      <path id="Tracciato_392" data-name="Tracciato 392" d="M252.095,664.336l-1.285.164V661.9l1.285-.245Z" transform="translate(1310.988 -1470.765)" fill="#3f3d56"/>
      <path id="Tracciato_393" data-name="Tracciato 393" d="M284.78,658.179l-1.542.2v-2.894l1.542-.294Z" transform="translate(1282.672 -1465.121)" fill="#3f3d56"/>
      <path id="Tracciato_394" data-name="Tracciato 394" d="M323.673,650.845l-1.927.244v-3.2l1.927-.366Z" transform="translate(1249.046 -1458.429)" fill="#3f3d56"/>
      <path id="Tracciato_395" data-name="Tracciato 395" d="M633.865,611.352l.771.292v-2.09l-.771-.341Z" transform="translate(976.498 -1424.975)" fill="#3f3d56"/>
      <path id="Tracciato_396" data-name="Tracciato 396" d="M612.584,603l.9.337v-2.264l-.9-.395Z" transform="translate(995.081 -1417.525)" fill="#3f3d56"/>
      <path id="Tracciato_397" data-name="Tracciato 397" d="M589.277,592.6l1.028.386v-2.442l-1.028-.452Z" transform="translate(1015.433 -1408.279)" fill="#3f3d56"/>
      <path id="Tracciato_398" data-name="Tracciato 398" d="M560.9,580.686l1.285.485v-2.54l-1.285-.564Z" transform="translate(1040.211 -1397.778)" fill="#3f3d56"/>
      <path id="Tracciato_399" data-name="Tracciato 399" d="M526.448,565.852l1.542.583v-2.767l-1.542-.676Z" transform="translate(1070.296 -1384.615)" fill="#3f3d56"/>
      <path id="Tracciato_400" data-name="Tracciato 400" d="M484.9,548.109l1.8.678v-3.119l-1.8-.788Z" transform="translate(1106.578 -1368.798)" fill="#3f3d56"/>
      <path id="Tracciato_401" data-name="Tracciato 401" d="M633.865,644.577l.771.194V642.65l-.771-.244Z" transform="translate(976.498 -1453.96)" fill="#3f3d56"/>
      <path id="Tracciato_402" data-name="Tracciato 402" d="M612.584,638.352l.9.225V636.3l-.9-.284Z" transform="translate(995.081 -1448.378)" fill="#3f3d56"/>
      <path id="Tracciato_403" data-name="Tracciato 403" d="M589.277,631.106l1.028.258v-2.442l-1.028-.324Z" transform="translate(1015.433 -1441.903)" fill="#3f3d56"/>
      <path id="Tracciato_404" data-name="Tracciato 404" d="M560.9,622.576l1.285.323v-2.635l-1.285-.4Z" transform="translate(1040.211 -1434.272)" fill="#3f3d56"/>
      <path id="Tracciato_405" data-name="Tracciato 405" d="M526.448,612.015l1.542.389v-2.83l-1.542-.485Z" transform="translate(1070.296 -1424.867)" fill="#3f3d56"/>
      <path id="Tracciato_406" data-name="Tracciato 406" d="M484.9,599.275l1.927.485v-3.183l-1.927-.607Z" transform="translate(1106.578 -1413.412)" fill="#3f3d56"/>
      <path id="Tracciato_407" data-name="Tracciato 407" d="M432.2,583.511l2.313.581v-3.536l-2.313-.725Z" transform="translate(1152.592 -1399.319)" fill="#3f3d56"/>
      <path id="Tracciato_408" data-name="Tracciato 408" d="M432.2,641.488l2.313.294v-3.506l-2.313-.437Z" transform="translate(1152.592 -1449.972)" fill="#3f3d56"/>
      <path id="Tracciato_409" data-name="Tracciato 409" d="M633.865,677.672l.771.1v-2.026l-.771-.147Z" transform="translate(976.498 -1482.944)" fill="#3f3d56"/>
      <path id="Tracciato_410" data-name="Tracciato 410" d="M612.584,674.61l.9.113v-2.169l-.9-.169Z" transform="translate(995.081 -1480.139)" fill="#3f3d56"/>
      <path id="Tracciato_411" data-name="Tracciato 411" d="M589.277,669.613l1.028.13V667.3l-1.028-.2Z" transform="translate(1015.433 -1475.528)" fill="#3f3d56"/>
      <path id="Tracciato_412" data-name="Tracciato 412" d="M560.9,664.336l1.285.164V661.9l-1.285-.245Z" transform="translate(1040.211 -1470.765)" fill="#3f3d56"/>
      <path id="Tracciato_413" data-name="Tracciato 413" d="M526.448,658.179l1.542.2v-2.894l-1.542-.294Z" transform="translate(1070.296 -1465.121)" fill="#3f3d56"/>
      <path id="Tracciato_414" data-name="Tracciato 414" d="M484.9,650.845l1.927.244v-3.2l-1.927-.366Z" transform="translate(1106.578 -1458.429)" fill="#3f3d56"/>
      <path id="Tracciato_415" data-name="Tracciato 415" d="M433.5,526.208l-2.313-.872v-3.625l2.313,1.014Z" transform="translate(1153.476 -1348.567)" fill="#3f3d56"/>
      <rect id="Rettangolo_152" data-name="Rettangolo 152" width="0.189" height="3.016" transform="translate(1608.506 -803.828)" fill="#2f2e41"/>
      <rect id="Rettangolo_153" data-name="Rettangolo 153" width="0.134" height="2.137" transform="translate(1610.782 -803.007)" fill="#2f2e41"/>
      <rect id="Rettangolo_154" data-name="Rettangolo 154" width="0.117" height="1.878" transform="translate(1612.772 -802.746)" fill="#2f2e41"/>
      <path id="Tracciato_416" data-name="Tracciato 416" d="M542.605,692.445v3.88l-2.505,0-2.505,0v-4.36l2.505.244Z" transform="translate(1060.563 -1497.229)" fill="#3f3d56"/>
      <path id="Tracciato_417" data-name="Tracciato 417" d="M244.73,696.325l5.011-.008v-4.36l-5.011.488Z" transform="translate(1316.297 -1497.229)" fill="#3f3d56"/>
      <rect id="Rettangolo_155" data-name="Rettangolo 155" width="112.266" height="0.257" transform="translate(1530 -801.032)" fill="#2f2e41"/>
      <path id="Tracciato_418" data-name="Tracciato 418" d="M559.861,694.127v3.88l-2.505,0v-4.12Z" transform="translate(1043.307 -1498.911)" opacity="0.1"/>
      <rect id="Rettangolo_156" data-name="Rettangolo 156" width="0.257" height="3.597" transform="translate(1581.52 -804.437)" fill="#2f2e41"/>
      <path id="Tracciato_419" data-name="Tracciato 419" d="M538.566,745.262c0,1.261-.673,2.313-1.483,2.349-.787.035-1.409-.908-1.409-2.106s1.538-4.487,1.538-4.487A16.632,16.632,0,0,1,538.566,745.262Z" transform="translate(1044.565 -1550.979)" fill="#ad1900"/>
      <rect id="Rettangolo_157" data-name="Rettangolo 157" width="0.153" height="2.146" transform="translate(1551.394 -803.284)" fill="#2f2e41"/>
      <path id="Tracciato_420" data-name="Tracciato 420" d="M303.859,770.227c0,.752-.4,1.379-.885,1.4s-.84-.542-.84-1.256a11.192,11.192,0,0,1,.917-2.676A9.921,9.921,0,0,1,303.859,770.227Z" transform="translate(1248.497 -1574.275)" fill="#ad1900"/>
      <path id="Tracciato_421" data-name="Tracciato 421" d="M752.452,769.393a1.115,1.115,0,0,1-1.037,1.246,1.413,1.413,0,0,1-1.156-1.5,9.682,9.682,0,0,1,1.156-2.789A14.581,14.581,0,0,1,752.452,769.393Z" transform="translate(857.186 -1573.102)" fill="#ad1900"/>
      <path id="Tracciato_422" data-name="Tracciato 422" d="M772.2,781.7a.79.79,0,0,1-.735.883,1,1,0,0,1-.819-1.061,6.862,6.862,0,0,1,.819-1.976A10.329,10.329,0,0,1,772.2,781.7Z" transform="translate(839.38 -1584.62)" fill="#ad1900"/>
      <path id="Tracciato_423" data-name="Tracciato 423" d="M788.428,785.474a.694.694,0,0,1-.646.776.88.88,0,0,1-.72-.933,6.03,6.03,0,0,1,.72-1.737A9.082,9.082,0,0,1,788.428,785.474Z" transform="translate(825.048 -1588.145)" fill="#ad1900"/>
      <path id="Tracciato_424" data-name="Tracciato 424" d="M772.491,242.6s-1.25,3.752-.556,4.585-4.168-2.5-4.168-2.5l2.64-3.057Z" transform="translate(841.897 -1114.903)" fill="#a0616a"/>
      <circle id="Ellisse_88" data-name="Ellisse 88" cx="6.239" cy="6.239" r="6.239" transform="translate(1605.298 -884.786)" fill="#2f2e41"/>
      <path id="Tracciato_425" data-name="Tracciato 425" d="M799.944,478.241l-3.2,2.5-1.806-2.918,3.2-2.223Z" transform="translate(835.843 -1308.303)" fill="#a0616a"/>
      <path id="Tracciato_426" data-name="Tracciato 426" d="M900.685,728.105l.834,4.03,2.362,3.2s6.391,1.945,2.084,2.918-5.28-.695-5.28-.695l-3.057-2.64v3.613h-1.945l-.417-5.141a4.415,4.415,0,0,1,.973-3.2l.278-2.5Z" transform="translate(730.586 -1539.34)" fill="#2f2e41"/>
      <path id="Tracciato_427" data-name="Tracciato 427" d="M777.562,328.912l1.112,6.392s11.811-1.251,12.644,1.112,1.112,3.057,1.112,3.057l-2.362.834-1.112-2.084a2.639,2.639,0,0,0-2.084.139c-1.112.556-10.838,1.945-11.533.139s-2.64-8.476-2.64-8.476l2.918-2.362Z" transform="translate(837.591 -1190.029)" fill="#a0616a"/>
      <path id="Tracciato_428" data-name="Tracciato 428" d="M777.562,328.912l1.112,6.392s11.811-1.251,12.644,1.112,1.112,3.057,1.112,3.057l-2.362.834-1.112-2.084a2.639,2.639,0,0,0-2.084.139c-1.112.556-10.838,1.945-11.533.139s-2.64-8.476-2.64-8.476l2.918-2.362Z" transform="translate(837.591 -1190.029)" opacity="0.1"/>
      <path id="Tracciato_429" data-name="Tracciato 429" d="M862.568,468.933l.973,3.335,2.5,12.783s.278,9.449.695,10.56.417,1.251,0,1.667-1.251,1.806,0,2.64,5.7,1.806,5.836.834a12.254,12.254,0,0,0,0-3.2c-.139-.695.417-11.533.417-11.533l-1.667-16.535-5.7-2.64Z" transform="translate(759.115 -1311.57)" fill="#2f2e41"/>
      <path id="Tracciato_430" data-name="Tracciato 430" d="M862.568,468.933l.973,3.335,2.5,12.783s.278,9.449.695,10.56.417,1.251,0,1.667-1.251,1.806,0,2.64,5.7,1.806,5.836.834a12.254,12.254,0,0,0,0-3.2c-.139-.695.417-11.533.417-11.533l-1.667-16.535-5.7-2.64Z" transform="translate(759.115 -1311.57)" opacity="0.1"/>
      <path id="Tracciato_431" data-name="Tracciato 431" d="M845.575,380.267l3.057,5.836s17.508,7.781,15.979,10.977-10,9.171-10,9.171-.417,2.362-1.667,1.667-4.307-4.307-4.03-4.724,1.25-1.389,1.667-1.251,5.28-3.613,5.28-3.613l-8.337-2.084s-10-.278-10.56-5,0-5.558,0-5.558l-.695-1.528,5.7-3.474Z" transform="translate(782.083 -1235.966)" fill="#2f2e41"/>
      <path id="Tracciato_432" data-name="Tracciato 432" d="M867.108,562.2l-2.918,2.64s-2.5-1.112-4.029-.695a34.382,34.382,0,0,1-4.169.695l.417,2.362,3.545-.654-2.85,3.989s0,6.253,1.806,6.253,1.251-3.752,1.251-3.752l5.558-4.307s2.779-1.111,3.057-1.111S867.108,562.2,867.108,562.2Z" transform="translate(764.857 -1394.831)" fill="#2f2e41"/>
      <circle id="Ellisse_89" data-name="Ellisse 89" cx="4.724" cy="4.724" r="4.724" transform="translate(1609.109 -880.64)" fill="#a0616a"/>
      <path id="Tracciato_433" data-name="Tracciato 433" d="M760.882,248.146s2.223-.556,2.918,0,.834,1.806,1.806,1.945a9.869,9.869,0,0,1,1.945.278c.139.139,3.335,4.03,3.335,4.03a5.532,5.532,0,0,1,2.362,2.64c.417,1.528,4.585,6.67,5.141,7.225s-3.613,3.335-5,4.307-5.419,1.389-6.67-.834S758.659,251.064,760.882,248.146Z" transform="translate(848.296 -1120.379)" fill="#ad1900"/>
      <path id="Tracciato_434" data-name="Tracciato 434" d="M772.082,312.472l1.112,6.392s11.811-1.251,12.644,1.112,1.112,3.057,1.112,3.057l-2.362.834-1.112-2.084a2.639,2.639,0,0,0-2.084.139c-1.112.556-10.838,1.945-11.533.139s-2.64-8.476-2.64-8.476l2.918-2.362Z" transform="translate(842.376 -1175.674)" fill="#a0616a"/>
      <path id="Tracciato_435" data-name="Tracciato 435" d="M755.509,250.6s3.35,7.058,3.072,9-1.25.556-1.25.556-1.251-1.945-1.806-.834-1.25,2.64-1.806,2.5-3.613-10.421-1.945-11.394S755.509,250.6,755.509,250.6Z" transform="translate(856.294 -1122.247)" fill="#ad1900"/>
      <circle id="Ellisse_90" data-name="Ellisse 90" cx="6.239" cy="6.239" r="6.239" transform="translate(1598.54 -893)" fill="#2f2e41"/>
      <path id="Tracciato_436" data-name="Tracciato 436" d="M667.533,135.819a6.239,6.239,0,0,0,9.634-3.276A6.239,6.239,0,1,1,665,129.985,6.237,6.237,0,0,0,667.533,135.819Z" transform="translate(931.864 -1017.415)" fill="#2f2e41"/>
      <circle id="Ellisse_91" data-name="Ellisse 91" cx="4.575" cy="4.575" r="4.575" transform="translate(1605.679 -882.083)" fill="#2f2e41"/>
      <ellipse id="Ellisse_92" data-name="Ellisse 92" cx="4.055" cy="3.171" rx="4.055" ry="3.171" transform="translate(1609.665 -882.395)" fill="#2f2e41"/>
      <ellipse id="Ellisse_93" data-name="Ellisse 93" cx="0.903" cy="1.598" rx="0.903" ry="1.598" transform="translate(1612.999 -877.027)" fill="#a0616a"/>
      <path id="Tracciato_437" data-name="Tracciato 437" d="M898.288,402.8s2.46-1.411,2.916-1.057a3.041,3.041,0,0,1,.659,1.461l-2.843,1.116-.834-1.528Z" transform="translate(728.012 -1254.669)" fill="#2f2e41"/>
    </g>
    <rect id="Rettangolo_317" data-name="Rettangolo 317" width="47" height="19" rx="1" transform="translate(5 26)" fill="#313131"/>
    <g id="Raggruppa_391" data-name="Raggruppa 391" transform="translate(309.749 -369.051)">
      <path id="Tracciato_1015" data-name="Tracciato 1015" d="M-289.067,399.051v12.18h-3.819l-4.043-6.125v6.125h-3.819v-12.18h3.819l4.043,6.228v-6.228Z" fill="#fff"/>
      <path id="Tracciato_1016" data-name="Tracciato 1016" d="M-191.7,402.1H-196v1.5h3.785v2.873H-196v1.72h4.3v3.045h-8.12v-12.18h8.12Z" transform="translate(-87.528)" fill="#fff"/>
      <path id="Tracciato_1017" data-name="Tracciato 1017" d="M-130.374,399.051h4.112l1.1,7.673,1.652-7.673h4.163l1.652,7.673,1.1-7.673h4.112l-2.787,12.18h-4.748l-1.411-6.916-1.411,6.916h-4.748Z" transform="translate(-147.752)" fill="#fff"/>
    </g>
  </g>
</svg>
