<svg xmlns="http://www.w3.org/2000/svg" xmlns:xlink="http://www.w3.org/1999/xlink" width="881.5" height="161.6" viewBox="0 0 881.5 161.6">
  <defs>
    <radialGradient id="radial-gradient" cx="0.5" cy="0.501" r="0.48" gradientTransform="matrix(1.09, 0, 0, -1, -0.045, 1.116)" gradientUnits="objectBoundingBox">
      <stop offset="0" stop-color="#fafafa"/>
      <stop offset="1" stop-color="#ccc"/>
    </radialGradient>
    <radialGradient id="radial-gradient-2" cx="0.428" cy="1.166" r="0.832" gradientTransform="matrix(1.18, 0, 0, -1, -0.077, -3.868)" gradientUnits="objectBoundingBox">
      <stop offset="0.154" stop-color="#0084c0"/>
      <stop offset="1" stop-color="#2a3580"/>
    </radialGradient>
    <radialGradient id="radial-gradient-3" cx="0.502" cy="0.5" r="0.499" gradientTransform="matrix(1, 0, 0, -1, 0, 2.164)" gradientUnits="objectBoundingBox">
      <stop offset="0" stop-color="#0084c0"/>
      <stop offset="0.867" stop-color="#2a3580"/>
    </radialGradient>
  </defs>
  <g id="Raggruppa_909" data-name="Raggruppa 909" transform="translate(-2 -7.5)">
    <path id="Tracciato_2332" data-name="Tracciato 2332" d="M802.7,169.1a80.8,80.8,0,1,1,80.8-80.8A80.832,80.832,0,0,1,802.7,169.1Zm0-146.7a65.8,65.8,0,1,0,65.8,65.8,65.788,65.788,0,0,0-65.8-65.8Z" fill="#e30b17"/>
    <path id="Tracciato_2333" data-name="Tracciato 2333" d="M771,61.5a11,11,0,0,1,3.1.4,10.836,10.836,0,0,1,1.9.8,3.072,3.072,0,0,1,1,1.5,10.464,10.464,0,0,1,.4,1.7V108a20.894,20.894,0,0,1-.1,2.5,4.383,4.383,0,0,1-.7,1.9,3.171,3.171,0,0,1-1.9,1.5,11.379,11.379,0,0,1-3.7.4,14.722,14.722,0,0,1-3.6-.4,2.852,2.852,0,0,1-1.9-1.5,7.315,7.315,0,0,1-.7-1.9,22.608,22.608,0,0,1-.1-2.6V82.3l-.9.9c-2,1.5-3.6,2.2-4.9,2.2a5.838,5.838,0,0,1-4.2-2.2c-1.7-1.9-2.6-3.5-2.6-4.9s.9-2.7,2.6-4.2l11.8-10.6.2-.1A5.748,5.748,0,0,1,771,61.5Z" fill="#1d1d1b"/>
    <path id="Tracciato_2334" data-name="Tracciato 2334" d="M820.3,97.4a16.013,16.013,0,0,1-5.9,13,19.466,19.466,0,0,1-13,4.9,20.424,20.424,0,0,1-13.5-4.9,16.311,16.311,0,0,1-5.9-13,12.32,12.32,0,0,1,1.5-5.9,14.567,14.567,0,0,1,2.9-4.1l1.5-1.4-1.2-1.2a12.3,12.3,0,0,1-1.9-3.1,11.148,11.148,0,0,1-1.2-5,14.667,14.667,0,0,1,5.3-11.6,18.344,18.344,0,0,1,12.4-4.6,17.483,17.483,0,0,1,12.2,4.7,15.478,15.478,0,0,1,5.2,11.9,9.761,9.761,0,0,1-1,4.4,12.034,12.034,0,0,1-2.1,3.4l-1.1,1.2a11.371,11.371,0,0,1,1.6,1.5,20.38,20.38,0,0,1,2.6,3.9A12.131,12.131,0,0,1,820.3,97.4Zm-23.9,4a6.469,6.469,0,0,0,4.8,1.7,6.1,6.1,0,0,0,4.7-1.7,5.078,5.078,0,0,0,0-7.4,6.219,6.219,0,0,0-4.8-1.7,6.383,6.383,0,0,0-4.7,1.7,5.8,5.8,0,0,0-1.7,3.7,5.575,5.575,0,0,0,1.7,3.7Zm4.7-28.7a4.879,4.879,0,0,0-3.6,1.3,3.653,3.653,0,0,0-.1,5.2l.2.2a4.879,4.879,0,0,0,3.6,1.3,4.517,4.517,0,0,0,3.5-1.3,4.01,4.01,0,0,0,1.2-2.8,3.964,3.964,0,0,0-1.2-2.7,4.927,4.927,0,0,0-3.6-1.2Z" fill="#1d1d1b"/>
    <path id="Tracciato_2335" data-name="Tracciato 2335" d="M846.7,82.9h5.8a16.2,16.2,0,0,1,2.2.1,5.776,5.776,0,0,1,1.7.6,2.742,2.742,0,0,1,1.3,1.7,12.423,12.423,0,0,1,.4,3.3,11.236,11.236,0,0,1-.4,3.2,2.982,2.982,0,0,1-1.2,1.7,4.714,4.714,0,0,1-1.5.6,14.769,14.769,0,0,1-2.1.1h-6.2V100a16.2,16.2,0,0,1-.1,2.2,5.775,5.775,0,0,1-.6,1.7,2.742,2.742,0,0,1-1.7,1.3,12.422,12.422,0,0,1-3.3.4,11.236,11.236,0,0,1-3.2-.4,2.826,2.826,0,0,1-1.7-1.3,4.923,4.923,0,0,1-.6-1.7,17.706,17.706,0,0,1-.1-2.3V94.1h-6.2a14.769,14.769,0,0,1-2.1-.1,3.946,3.946,0,0,1-1.5-.6,2.591,2.591,0,0,1-1.2-1.7,13.812,13.812,0,0,1,0-6.6,2.645,2.645,0,0,1,1.4-1.7,4.924,4.924,0,0,1,1.7-.6,17.7,17.7,0,0,1,2.3-.1h5.8V76.9a16.2,16.2,0,0,1,.1-2.2,5.775,5.775,0,0,1,.6-1.7,2.742,2.742,0,0,1,1.7-1.3,14.271,14.271,0,0,1,6.5,0,3.147,3.147,0,0,1,1.7,1.3,4.923,4.923,0,0,1,.6,1.7,17.7,17.7,0,0,1,.1,2.3Z" fill="#1d1d1b"/>
    <path id="Tracciato_2336" data-name="Tracciato 2336" d="M493.9,83.3a13.762,13.762,0,0,1-5.6,1.2,12.645,12.645,0,0,1-7.5-2.4,15.585,15.585,0,0,1-5.3-6.6,16.632,16.632,0,0,1-1.4-6.6,13.2,13.2,0,0,1,8-12.3A18.312,18.312,0,0,1,489,55c3.1,0,5,.9,5.8,2.6a4.529,4.529,0,0,1,.3,1.6,2.912,2.912,0,0,1-1.9,2.9,7.726,7.726,0,0,1-3.7.1,8.909,8.909,0,0,0-4.6.6,5.2,5.2,0,0,0-3.3,5.3,9.021,9.021,0,0,0,.9,4c1.5,3.4,3.6,5,6.2,5a5.785,5.785,0,0,0,3.9-1.5,4.369,4.369,0,0,0,1.9-3.6,6.882,6.882,0,0,0-.2-1.3l-2.6,1.2a4.013,4.013,0,0,1-1.5.3,3.039,3.039,0,0,1-3.1-2.1,4.012,4.012,0,0,1-.3-1.5,3.161,3.161,0,0,1,2.1-3.1l5.7-2.6a5.374,5.374,0,0,1,2.1-.5,3.97,3.97,0,0,1,3.6,2.8,14.237,14.237,0,0,1,1.3,6.1,12.144,12.144,0,0,1-1.9,6.7A11.425,11.425,0,0,1,493.9,83.3Z" fill="#606566"/>
    <path id="Tracciato_2337" data-name="Tracciato 2337" d="M505.8,80.7a1.483,1.483,0,0,1,.1-.7l3.3-20.8a3.7,3.7,0,0,1,1.2-2.4,3.337,3.337,0,0,1,2.3-.9,3.775,3.775,0,0,1,2.7,1,3.631,3.631,0,0,1,1.1,2.6,1.483,1.483,0,0,1-.1.7L513.1,81a3.7,3.7,0,0,1-1.2,2.4,3.337,3.337,0,0,1-2.3.9,3.775,3.775,0,0,1-2.7-1A3.631,3.631,0,0,1,505.8,80.7Z" fill="#606566"/>
    <path id="Tracciato_2338" data-name="Tracciato 2338" d="M532.5,84.5a12.794,12.794,0,0,1-8.4-4.7,14.24,14.24,0,0,1-3-9.1,24.525,24.525,0,0,1,.2-2.7,15.082,15.082,0,0,1,4.6-9,12.807,12.807,0,0,1,8.9-3.5,17.852,17.852,0,0,1,2.3.2,12.1,12.1,0,0,1,8.3,4.8,13.863,13.863,0,0,1,3.1,9.2,22.744,22.744,0,0,1-.2,2.6,15.535,15.535,0,0,1-4.5,8.9,12.807,12.807,0,0,1-8.9,3.5A19.419,19.419,0,0,1,532.5,84.5ZM536,62.6a3.083,3.083,0,0,0-1-.1,5.586,5.586,0,0,0-4.1,1.8,9.475,9.475,0,0,0-2.1,4.8,10.871,10.871,0,0,0-.1,1.8,6.916,6.916,0,0,0,1.3,4.4,5.051,5.051,0,0,0,3.7,2.1,3.4,3.4,0,0,0,1,.1,5.327,5.327,0,0,0,4.1-1.9,9.338,9.338,0,0,0,2-4.8,10.865,10.865,0,0,0,.1-1.8,7.5,7.5,0,0,0-1.2-4.4,6.143,6.143,0,0,0-3.7-2Z" fill="#606566"/>
    <path id="Tracciato_2339" data-name="Tracciato 2339" d="M565.1,84.8a12.794,12.794,0,0,1-8.4-4.7,14.332,14.332,0,0,1-3.1-9.1,24.525,24.525,0,0,1,.2-2.7,15.082,15.082,0,0,1,4.6-9,12.807,12.807,0,0,1,8.9-3.5,17.852,17.852,0,0,1,2.3.2,15.537,15.537,0,0,1,5.1,1.8,5.167,5.167,0,0,1,3,4,3.583,3.583,0,0,1-.9,2.4,2.9,2.9,0,0,1-2.3,1,5.692,5.692,0,0,1-2.9-1.1,7.61,7.61,0,0,0-3-1c-.3,0-.7-.1-1-.1a5.179,5.179,0,0,0-4,1.8,8.41,8.41,0,0,0-2.1,4.7,9.152,9.152,0,0,0-.1,1.7,6.815,6.815,0,0,0,1.3,4.3,5.515,5.515,0,0,0,3.7,2.2c.4,0,.7.1,1.1.1a6.723,6.723,0,0,0,2.4-.4,14.156,14.156,0,0,1,2-.4,3.225,3.225,0,0,1,2.6,1.2,2.917,2.917,0,0,1,.7,2.7,3.878,3.878,0,0,1-2.8,3.1,11.046,11.046,0,0,1-4.8.8A7,7,0,0,1,565.1,84.8Z" fill="#606566"/>
    <path id="Tracciato_2340" data-name="Tracciato 2340" d="M592.8,84.5a12.794,12.794,0,0,1-8.4-4.7,14.24,14.24,0,0,1-3-9.1,24.525,24.525,0,0,1,.2-2.7,15.082,15.082,0,0,1,4.6-9,12.807,12.807,0,0,1,8.9-3.5,17.853,17.853,0,0,1,2.3.2,12.1,12.1,0,0,1,8.3,4.8,13.863,13.863,0,0,1,3.1,9.2,22.744,22.744,0,0,1-.2,2.6,15.09,15.09,0,0,1-4.6,8.9,12.807,12.807,0,0,1-8.9,3.5A19.526,19.526,0,0,1,592.8,84.5Zm3.5-21.9a3.083,3.083,0,0,0-1-.1,5.586,5.586,0,0,0-4.1,1.8,9.475,9.475,0,0,0-2.1,4.8,10.871,10.871,0,0,0-.1,1.8,6.917,6.917,0,0,0,1.3,4.4,5.051,5.051,0,0,0,3.7,2.1,3.4,3.4,0,0,0,1,.1,5.327,5.327,0,0,0,4.1-1.9,9.338,9.338,0,0,0,2-4.8,10.865,10.865,0,0,0,.1-1.8,7.5,7.5,0,0,0-1.2-4.4,6.143,6.143,0,0,0-3.7-2Z" fill="#606566"/>
    <path id="Tracciato_2341" data-name="Tracciato 2341" d="M483.1,106.4a38.535,38.535,0,0,1-.2,4.8,2.865,2.865,0,0,1-1,2.2,3.166,3.166,0,0,1-2.3.7,2.919,2.919,0,0,1-2.1-1.1,2.811,2.811,0,0,1-.6-2.3l1.5-17.1a3.212,3.212,0,0,1,1-2.2,3.306,3.306,0,0,1,2.3-.7l5.3.5a9.669,9.669,0,0,1,5.6,2.1,6.938,6.938,0,0,1,2.1,5.2v1a5.713,5.713,0,0,1-1.8,3.9,7.311,7.311,0,0,1-3.7,1.9l3.9,4.9a2.211,2.211,0,0,1,.6,1.9,3.215,3.215,0,0,1-1,2.1,2.686,2.686,0,0,1-2.3.7,2.911,2.911,0,0,1-2.3-1.3Zm3.5-9.5-2.4-.2-.3,3.9,2.4.2c1.4.1,2.1-.5,2.2-1.8.1-1.2-.5-1.9-1.9-2.1Z" fill="#262e94"/>
    <path id="Tracciato_2342" data-name="Tracciato 2342" d="M506,115l-7.7-1.5a2.944,2.944,0,0,1-1.8-1,2.64,2.64,0,0,1-.7-1.9,1.268,1.268,0,0,1,.1-.6l3.2-16.5c.4-1.9,1.4-2.8,3-2.8a1.7,1.7,0,0,1,.7.1l7.4,1.4a3.247,3.247,0,0,1,1.8,1,2.887,2.887,0,0,1-.2,3.8,2.665,2.665,0,0,1-2,.9,1.268,1.268,0,0,1-.6-.1l-4.5-.9-.6,2.9,4.1.8a2.944,2.944,0,0,1,1.8,1,2.927,2.927,0,0,1-2.2,4.7h-.1a1.268,1.268,0,0,1-.6-.1l-4.2-.8-.6,3,4.8.9a2.855,2.855,0,0,1,1.6,4.8,2.665,2.665,0,0,1-2,.9Z" fill="#262e94"/>
    <path id="Tracciato_2343" data-name="Tracciato 2343" d="M521.3,114.8a15.238,15.238,0,0,1-5.1-.9c-2.1-.8-3.1-1.9-3.1-3.3a3.227,3.227,0,0,1,.8-2.1,2.665,2.665,0,0,1,2-.9,10.155,10.155,0,0,1,2.5.6,10.957,10.957,0,0,0,2.6.6c1.6,0,2.3-.6,2.3-1.9,0-.6-.9-1.2-2.7-1.7a18.419,18.419,0,0,1-4.9-1.9,5.956,5.956,0,0,1-2.7-5,7.026,7.026,0,0,1,2.5-5.6,8.232,8.232,0,0,1,5.8-2,9.782,9.782,0,0,1,4.1.9c1.7.8,2.6,1.7,2.6,3a3.227,3.227,0,0,1-.8,2.1,2.665,2.665,0,0,1-2,.9,4.552,4.552,0,0,1-2-.5,7.336,7.336,0,0,0-2-.5c-1.2,0-1.7.4-1.7,1.2,0,.4.9.9,2.7,1.4a15.148,15.148,0,0,1,4.9,2.1,6.346,6.346,0,0,1,2.7,5.5,7.342,7.342,0,0,1-2.6,5.8A8.486,8.486,0,0,1,521.3,114.8Z" fill="#262e94"/>
    <path id="Tracciato_2344" data-name="Tracciato 2344" d="M540.8,107.1l-2.6.5.7,4.2c0,.2.1.4.1.7a3.1,3.1,0,0,1-.9,2.2,3.008,3.008,0,0,1-2.2.8,2.64,2.64,0,0,1-1.9-.7,2.968,2.968,0,0,1-1-1.9L530,96c0-.2-.1-.4-.1-.7a2.859,2.859,0,0,1,2.6-3h.1l5.3-.9a11.018,11.018,0,0,1,1.8-.2A8.494,8.494,0,0,1,545,93a7.67,7.67,0,0,1,2.8,4.8,7.566,7.566,0,0,1,.1,1.5,7.443,7.443,0,0,1-2,5.1A8.527,8.527,0,0,1,540.8,107.1Zm-2.1-10.3-2.3.4.9,4.9,2.3-.4a2.18,2.18,0,0,0,2-2.2v-.1a2.792,2.792,0,0,0-.6-1.8,2.289,2.289,0,0,0-1.7-.8Z" fill="#262e94"/>
    <path id="Tracciato_2345" data-name="Tracciato 2345" d="M558.5,114.6a10.988,10.988,0,0,1-6.9-3.9,11.336,11.336,0,0,1-2.5-7.5,16.356,16.356,0,0,1,.2-2.2,12.636,12.636,0,0,1,3.8-7.4,10.017,10.017,0,0,1,7.3-2.8,12.252,12.252,0,0,1,1.9.2,10.988,10.988,0,0,1,6.9,3.9,11.989,11.989,0,0,1,2.6,7.5,14.914,14.914,0,0,1-.2,2.1,12.1,12.1,0,0,1-3.8,7.3,10.54,10.54,0,0,1-7.3,2.9A6.38,6.38,0,0,1,558.5,114.6Zm2.8-18a2.2,2.2,0,0,0-.8-.1,4.478,4.478,0,0,0-3.4,1.5,7.22,7.22,0,0,0-1.7,4,7.566,7.566,0,0,0-.1,1.5,6.3,6.3,0,0,0,1,3.6,4.5,4.5,0,0,0,3,1.8,2.2,2.2,0,0,0,.8.1,4.579,4.579,0,0,0,3.4-1.6,8.065,8.065,0,0,0,1.7-3.9,7.57,7.57,0,0,0,.1-1.5,6.528,6.528,0,0,0-1-3.6A4.918,4.918,0,0,0,561.3,96.6Z" fill="#262e94"/>
    <path id="Tracciato_2346" data-name="Tracciato 2346" d="M588.3,103.4c-.4-1.6-.9-4.8-1.5-9.7v-.5a2.883,2.883,0,0,1,.7-2,2.842,2.842,0,0,1,1.9-.9,3.221,3.221,0,0,1,2.3.6,2.656,2.656,0,0,1,1.1,2.2l2.1,17.2v.5a2.883,2.883,0,0,1-.7,2,3.477,3.477,0,0,1-2,1,2.3,2.3,0,0,1-1.4-.2,3.528,3.528,0,0,1-1.3-.8l-10-10.3c.4,1.6.9,4.8,1.5,9.5v.6a2.883,2.883,0,0,1-.7,2,2.842,2.842,0,0,1-1.9.9,3.222,3.222,0,0,1-2.3-.6,2.656,2.656,0,0,1-1.1-2.2l-2.1-17.2V95a2.883,2.883,0,0,1,.7-2,3.477,3.477,0,0,1,2-1,2.2,2.2,0,0,1,1.4.2,2.55,2.55,0,0,1,1.2.8Z" fill="#262e94"/>
    <path id="Tracciato_2347" data-name="Tracciato 2347" d="M604.9,114.8a15.238,15.238,0,0,1-5.1-.9c-2.1-.8-3.1-1.9-3.1-3.3a3.227,3.227,0,0,1,.8-2.1,2.665,2.665,0,0,1,2-.9,10.154,10.154,0,0,1,2.5.6,10.957,10.957,0,0,0,2.6.6c1.6,0,2.3-.6,2.3-1.9,0-.6-.9-1.2-2.7-1.7a18.42,18.42,0,0,1-4.9-1.9,5.956,5.956,0,0,1-2.7-5,7.026,7.026,0,0,1,2.5-5.6,8.232,8.232,0,0,1,5.8-2,9.782,9.782,0,0,1,4.1.9c1.7.8,2.6,1.7,2.6,3a3.227,3.227,0,0,1-.8,2.1,2.665,2.665,0,0,1-2,.9,4.552,4.552,0,0,1-2-.5,7.336,7.336,0,0,0-2-.5c-1.2,0-1.7.4-1.7,1.2,0,.4.9.9,2.7,1.4a15.148,15.148,0,0,1,4.9,2.1,6.347,6.347,0,0,1,2.7,5.5,7.343,7.343,0,0,1-2.6,5.8A8.486,8.486,0,0,1,604.9,114.8Z" fill="#262e94"/>
    <path id="Tracciato_2348" data-name="Tracciato 2348" d="M631.5,115.2a2.725,2.725,0,0,1-2.5-1.7,28.068,28.068,0,0,1-.8-3.1l-7.3-.6c-.4,1-.8,1.9-1.3,2.9a2.635,2.635,0,0,1-2.7,1.2,2.975,2.975,0,0,1-2-1,2.761,2.761,0,0,1-.3-3.3l7.5-16a5.51,5.51,0,0,1,1.7-2,3.614,3.614,0,0,1,2.5-.6,3.947,3.947,0,0,1,3.7,3.4l4.5,17a6.754,6.754,0,0,1,.2,1.4,2.558,2.558,0,0,1-1,1.9A3.424,3.424,0,0,1,631.5,115.2Zm-6-16.7c-.4,1.3-1.2,3.2-2.3,5.8l3.7.3Z" fill="#262e94"/>
    <path id="Tracciato_2349" data-name="Tracciato 2349" d="M648.7,101.2a3.7,3.7,0,0,1,2.9,1.4,5.431,5.431,0,0,1,1.6,3.4c0,.4.1.8.1,1.2a6.12,6.12,0,0,1-1.9,4.8,8.861,8.861,0,0,1-5.1,2.3l-6.2.8a3.477,3.477,0,0,1-2.4-.6,3.036,3.036,0,0,1-1.2-2.1l-2.1-17a2.724,2.724,0,0,1,.6-2.3,3.577,3.577,0,0,1,2.2-1.1l5.8-.7h.9a7.064,7.064,0,0,1,4.2,1.4,6.062,6.062,0,0,1,2.1,3.9c0,.3.1.6.1.9A5.233,5.233,0,0,1,648.7,101.2Zm-6.3-4.3-1.6.2.4,3,1.6-.2a1.453,1.453,0,0,0,1.5-1.4v-.4C644.2,97.1,643.5,96.7,642.4,96.9Zm1.9,8.4-2.4.3.4,3.5,2.8-.4c1.4-.2,2-.9,1.9-2.1-.1-.9-.8-1.4-2-1.4a1.952,1.952,0,0,1-.7.1Z" fill="#262e94"/>
    <path id="Tracciato_2350" data-name="Tracciato 2350" d="M654.5,111.5a1.269,1.269,0,0,1,.1-.6l2.7-17.1a2.975,2.975,0,0,1,1-2,2.64,2.64,0,0,1,1.9-.7,3.5,3.5,0,0,1,2.2.8,3.1,3.1,0,0,1,.9,2.2,1.269,1.269,0,0,1-.1.6l-2.7,17.1a2.975,2.975,0,0,1-1,2,2.64,2.64,0,0,1-1.9.7,3.494,3.494,0,0,1-2.2-.8A3.1,3.1,0,0,1,654.5,111.5Z" fill="#262e94"/>
    <path id="Tracciato_2351" data-name="Tracciato 2351" d="M675,114.7l-7.6-.7a2.656,2.656,0,0,1-2.2-1.1,3.031,3.031,0,0,1-.6-2.4l1.5-16.9a2.948,2.948,0,0,1,1.1-2.2,3.034,3.034,0,0,1,2.3-.7,2.814,2.814,0,0,1,2.1,1,3.415,3.415,0,0,1,.7,2.4L671,108.6l4.6.4a2.876,2.876,0,0,1,2,.9,2.64,2.64,0,0,1,.7,1.9,3.227,3.227,0,0,1-.8,2.1A3.558,3.558,0,0,1,675,114.7Z" fill="#262e94"/>
    <path id="Tracciato_2352" data-name="Tracciato 2352" d="M689.7,115l-7.7-1.5a2.944,2.944,0,0,1-1.8-1,2.64,2.64,0,0,1-.7-1.9,1.269,1.269,0,0,1,.1-.6l3.2-16.5c.4-1.9,1.4-2.8,3-2.8a1.7,1.7,0,0,1,.7.1l7.4,1.4a3.247,3.247,0,0,1,1.8,1,2.887,2.887,0,0,1-.2,3.8,2.518,2.518,0,0,1-2,.9,1.268,1.268,0,0,1-.6-.1l-4.5-.9-.5,2.9,4.1.8a2.944,2.944,0,0,1,1.8,1,2.927,2.927,0,0,1-2.2,4.7h-.1a1.268,1.268,0,0,1-.6-.1l-4.2-.8-.6,3,4.8.9a2.855,2.855,0,0,1,1.6,4.8,2.665,2.665,0,0,1-2,.9Z" fill="#262e94"/>
    <path id="Tracciato_2353" data-name="Tracciato 2353" d="M448.3,100.9a3.75,3.75,0,0,1-3.6,2.8,3.8,3.8,0,0,1-3.8-3.8v-.4l-16.6-3.1.4-4.3c5.4-1.6,8.9-17.9,8.9-17.9,2.1-11,14.2-11.6,14.2-11.6a9.559,9.559,0,0,1,1-3,30.4,30.4,0,1,0,10.7,43.3Z" fill="url(#radial-gradient)"/>
    <path id="Tracciato_2354" data-name="Tracciato 2354" d="M448.9,91.3a3.474,3.474,0,0,1,3.1,3.8l-.2,1.6a3.511,3.511,0,0,1-3.9,3.1h0a3.474,3.474,0,0,1-3.1-3.8l.2-1.6a3.629,3.629,0,0,1,3.9-3.1Z" fill="url(#radial-gradient-2)"/>
    <g id="Raggruppa_908" data-name="Raggruppa 908">
      <g id="Raggruppa_907" data-name="Raggruppa 907">
        <path id="SVGID" d="M452.3,58.1s3.3.6,2.8,5.9c0,0,10.3,3.4,9.3,13.1,0,0-1,14.3,3.2,17l-.2,1.8-37.6-3.8.2-1.8c4.6-1.8,6.6-16,6.6-16,1-9.6,11.7-11,11.7-11,.7-5.3,4-5.2,4-5.2" fill="url(#radial-gradient-3)"/>
      </g>
    </g>
    <path id="Tracciato_2355" data-name="Tracciato 2355" d="M455.1,64.1c.5-5.4-2.8-5.9-2.8-5.9h0s-3.4-.1-3.9,5.3c0,0-9.5,1.2-11.5,9.3a45.035,45.035,0,0,0,16.9,3.3,45.919,45.919,0,0,0,10.6-1.3C463.6,66.9,455.1,64.1,455.1,64.1Z" fill="#adc8df" opacity="0.52" style="isolation: isolate"/>
    <path id="Tracciato_2356" data-name="Tracciato 2356" d="M280.6,127.9h21.1l2.6-38.6a115.306,115.306,0,0,0,0-14.4h.2s2.9,9,4.8,14.4l9,24.8h18l9-24.8c1.9-5.4,4.8-14.4,4.8-14.4h.2a115.317,115.317,0,0,0,0,14.4l2.6,38.6h21l-7-85.7H344.1L331.7,78.5c-1.9,5.5-4.3,14.1-4.3,14.1h-.3s-2.4-8.6-4.3-14.1L310.4,42.2H287.6Z" fill="#039"/>
    <path id="Tracciato_2357" data-name="Tracciato 2357" d="M169.6,42.2H147.5l-29.1,85.6H140l5.1-17.8h26.6l5.3,17.9h21.8ZM150.1,93l4.8-16.7c1.6-5.1,3.5-14.6,3.5-14.6h.2s1.9,9.3,3.5,14.7l4.8,16.7Z" fill="#039"/>
    <path id="Tracciato_2358" data-name="Tracciato 2358" d="M232.7,42.2H202.3v85.7h30.4c26.9,0,44.2-16.1,44.2-43s-17.2-42.7-44.2-42.7m-.8,67.7h-8.6V60.2h8.6c14.1,0,23.4,8.4,23.4,24.7s-8.9,25-23.4,25" fill="#039"/>
    <path id="Tracciato_2359" data-name="Tracciato 2359" d="M93.6,51.5h0v-.2h.7a3.552,3.552,0,0,0,.4-.9l.5-1.1,1.4-3.1a14.167,14.167,0,0,1,.8-1.8h.3l2,5,.3.7.3.6a.758.758,0,0,0,.2.4h.5v.2H98.5v-.2h.7c.1,0,.1-.1.1-.2v-.3l-.6-1.5H95.8l-.6,1.3a.9.9,0,0,0-.1.5.349.349,0,0,0,.1.2h.7v.3H93.7m2.2-2.8h2.4l-1.2-2.9Z" fill="#039"/>
    <path id="Tracciato_2360" data-name="Tracciato 2360" d="M100.9,61v.2l-.2.1h0v1.9h0a6.632,6.632,0,0,1-2.8.5,4.477,4.477,0,0,1-2-.4,3.325,3.325,0,0,1-1.4-1.2,2.877,2.877,0,0,1-.5-2,3.424,3.424,0,0,1,1.2-2.7,4.345,4.345,0,0,1,2.9-.7,4.94,4.94,0,0,1,2.4.5h0a6.753,6.753,0,0,0-.2,1.4H100v-.9h0l-.4-.3a1.884,1.884,0,0,0-.8-.2H98a2.934,2.934,0,0,0-1.6.4,2.345,2.345,0,0,0-1.1,1.1,4.193,4.193,0,0,0-.4,1.6,3.287,3.287,0,0,0,.4,1.7,2.545,2.545,0,0,0,1.1,1.2,2.4,2.4,0,0,0,1.6.4h.8a2.092,2.092,0,0,0,.6-.4V61.5l-.2-.1h-.8V61h2.5Z" fill="#039"/>
    <path id="Tracciato_2361" data-name="Tracciato 2361" d="M94.7,68.9h5.1a7.719,7.719,0,0,0-.2,1.5h-.3v-.8a2.92,2.92,0,0,0-.9-.2H96.6v2.7h2.1v-.9H99v2.2h-.2v-.8H96.7v2.9h2.4c.2,0,.4-.1.6-.1l.1-.5v-.5h.3v1.7H94.8v-.3l.3-.2v-6h-.4Z" fill="#039"/>
    <path id="Tracciato_2362" data-name="Tracciato 2362" d="M93.5,88.1h0v-.2h.7V81.6c-.1-.1-.1-.1-.2-.1h-.6v-.3h1.7l1.6,2.1,2.4,2.9.9,1V81.6h-.9v-.2h2.1v.2h-.7v6.8l-.9-.2-.4-.4-1-1.3-3.4-4.3v5.5h.7v.5h-2" fill="#039"/>
    <path id="Tracciato_2363" data-name="Tracciato 2363" d="M94.2,100.3V100l1.2-1.5,2.8-3.7q.6-.75.9-1.2H95.3v1h-.5V93h5.5v.3l-.8.9-4.1,5.3h4.3V98.4h.2v1.7H93.8Z" fill="#039"/>
    <path id="Tracciato_2364" data-name="Tracciato 2364" d="M96,105.5h2.8v.2H98V112h.9v.2H96.8v-6.4h-.9v-.2Z" fill="#039"/>
    <path id="Tracciato_2365" data-name="Tracciato 2365" d="M93.6,124.8h0v-.3h.5c.1,0,.1-.1.2-.1l.3-.6.5-1.1,1.4-3.1a14.166,14.166,0,0,1,.8-1.8h.3l2.1,4.8.3.7.3.6a.758.758,0,0,0,.2.4h.5v.2H99.2c.1,0,.1-.1.1-.2V124l-.6-1.5H95.8l-.6,1.3a.9.9,0,0,0-.1.5.349.349,0,0,0,.1.2h.7v.3H93.6m2.3-2.8h2.4l-1.2-3.1Z" fill="#039"/>
    <rect id="Rettangolo_504" data-name="Rettangolo 504" width="0.8" height="86.6" transform="translate(90.7 41.6)" fill="#009245"/>
    <rect id="Rettangolo_505" data-name="Rettangolo 505" width="0.8" height="86.6" transform="translate(103.4 41.8)" fill="#c1272d"/>
    <path id="Tracciato_2366" data-name="Tracciato 2366" d="M21.1,58.6l.6-.3.1.3h0l.9,2.1-.3.3A17.879,17.879,0,0,0,21,62.3l-.7.7-.3.4-.4-.4h0V61.9h0l.4-.3.5-.5a4.35,4.35,0,0,1,.7-.6l-.1-.3-.3-.7Z" fill="#039"/>
    <path id="Tracciato_2367" data-name="Tracciato 2367" d="M13.2,73l-.6-.3h0l-.3.6h0l-.3.5h0l.7.4.3.2a25.122,25.122,0,0,0-.4,2.7l-2,.4-.6.2h0v4.4l2.6.6a25.122,25.122,0,0,0,.4,2.7l-2.4,1.3.1.5a12.589,12.589,0,0,0,.5,1.6v.7h0l.5-.2.4-.9h0a1.854,1.854,0,0,0-.2-.7h.5v-.4l.4-.2.8-.5h0l.9-1.4h0v-.6c-.2-.9-.3-1.7-.4-2.5v-.5l-2.6-.5V78.8l2.3-.6v-.5a21.359,21.359,0,0,1,.6-3.5v-.5l-.6-.3-.6-.4Z" fill="#039"/>
    <path id="Tracciato_2368" data-name="Tracciato 2368" d="M65.9,89.2l-.4-.1-.4-.9v-.5l.1-.4-1.4-.8-.4-.2.4-.8h0l.2-.3.3.2,2.4,1.4v.5l-.3,1h0a.735.735,0,0,1-.2.6Z" fill="#039"/>
    <path id="Tracciato_2369" data-name="Tracciato 2369" d="M38.8,108.7H36.6l-.5-2.6a12.588,12.588,0,0,1-2.7-.4l-1.3,2.4-.5-.1-3.3-1.1-.5-.2.3-2.6c-.8-.4-1.6-.8-2.4-1.3l-2,1.8-.4-.3a28.319,28.319,0,0,1-2.8-2l-.4-.3,1.1-2.4c-.7-.6-1.3-1.3-1.9-1.9l-2.4,1.1-.3-.4-.4-.6-.2-.2a5.5,5.5,0,0,0-.7-.9l1.1-.8.6.9.1.2h0l2.4-1.1.3.4c.8.8,1.6,1.7,2.4,2.4l.4.3-1.1,2.4,1.9,1.3,1.9-1.7.4.2a31.823,31.823,0,0,0,3.2,1.6l.4.2-.3,2.6,2.2.7,1.3-2.3.5.1a19.677,19.677,0,0,0,3.5.5H37l.5,2.7h2.4l.5-2.4h.5a19.677,19.677,0,0,0,3.5-.6l.5-.1,1.3,2.3,2.2-.7-.3-2.6.4-.2a30.134,30.134,0,0,0,3.1-1.6l.4-.2,1.9,1.7c.5-.4,1.3-.9,1.9-1.4L55,99.3l.4-.3a18.137,18.137,0,0,0,2.4-2.4l.3-.4,2.4,1.1,1.1-1.5.3-.5,1.1.8-.3.5-1.5,2-.3.4-2.4-1.1a18.413,18.413,0,0,1-2,1.9l1.1,2.4-.4.3c-.4.3-2.3,1.7-2.8,2l-.4.3-2-2.1c-.8.5-1.6.9-2.4,1.3l.3,2.6-.5.2-3.3,1.1-.5.1-1.3-2.4a25.121,25.121,0,0,1-2.7.4l-.5,2.6H38.9Z" fill="#039"/>
    <path id="Tracciato_2370" data-name="Tracciato 2370" d="M37.2,51.1,59.7,63.2l-.5.2-1.1.6-.3-.4a27.153,27.153,0,0,0-2.4-2.4l-.4-.3,1.1-2.4-1.3-.9-.6-.4-1.9,1.7-.4-.2a31.824,31.824,0,0,0-3.2-1.6l-.5-.3.3-2.6c-.6-.2-1.6-.5-2.2-.7L45,55.7h-.5a19.677,19.677,0,0,0-3.5-.6h-.5L40,52.7H37.6l-.5,2.4h-.5a21.36,21.36,0,0,0-3.5.6h-.5l-1.3-2.3c-.6.2-1.6.5-2.2.7l.4,2.6-.4.2A18.185,18.185,0,0,0,26,58.5l-.4.2-2-1.7-.3.2-1,.8h-.1l-.4-.5.6-1.2.2-.2.8-.5h.2l.2-.1,2,1.8c.8-.5,1.6-.9,2.4-1.3l-.3-2.6.5-.2,3.3-1.1H32l1.3,2.4a25.123,25.123,0,0,1,2.7-.4l.6-2.8h4.5l.5,2.6a25.578,25.578,0,0,1,2.7.5L45.6,52h.5a18.261,18.261,0,0,1,3.3,1.1l.5.2-.3,2.6A18.342,18.342,0,0,1,52,57.2l1.9-1.8h0l.4.2h.2l1,.7h0l.8.6h0l.8.6.4.3-.5.4L56.2,60c.7.6,1.3,1.3,1.9,1.9l.8-.4.3-.1.3.6Z" fill="#039"/>
    <path id="Tracciato_2371" data-name="Tracciato 2371" d="M63.8,81.7h.5l2-.4V79l-2.6-.5V78a23.481,23.481,0,0,0-.5-3.7l-.1-.5,1-.6.9-.5h.5l.2.3-.1.8h0l-.7.4-.3.2a25.121,25.121,0,0,1,.4,2.7l1.4.3.8.2.5.8v3.7l-2.6.5a9.971,9.971,0,0,1-.2,1.6h-.6Z" fill="#039"/>
    <path id="Tracciato_2372" data-name="Tracciato 2372" d="M26.3,97.2l4.4-14.7L18.6,73.3l15.3-.4,5-14.5L44,72.9l15.3.4L47.2,82.6l4.4,14.6L39,88.5ZM38.8,87l10.3,7.1-3.6-12,9.9-7.6L43,74.2,38.9,62.4,34.8,74.2l-12.5.3,9.9,7.6L28.6,94.2Z" fill="#039"/>
    <path id="Tracciato_2373" data-name="Tracciato 2373" d="M25.6,98.1l4.6-15.4L17.5,73l16-.4,5.3-15.1,5.4,15.1,16,.4L47.5,82.7,52,98,38.8,88.9ZM19.5,73.6,31,82.4l-4.1,14,11.9-8.2,12,8.3L46.6,82.6l11.5-8.9-14.5-.3L38.8,59.7,34,73.3ZM49.7,94.9,38.8,87.4,28,94.9l3.8-12.7-10.5-8,13.2-.3,4.3-12.3L43.2,74l13.2.3L45.9,82.4ZM38.8,86.5l9.7,6.7L45.2,82l9.3-7.1-11.7-.3L38.9,63.5,35,74.5l-11.7.3,9.3,7.1L29.2,93.2Z" fill="#039"/>
    <path id="Tracciato_2374" data-name="Tracciato 2374" d="M44.4,73.6H43.3l-.3-.7-.4-13.7h.5a20.773,20.773,0,0,1,14,10.3l.2.4Zm-.5-.7h.4l11.9-3.3a20.447,20.447,0,0,0-12.8-9.4l.4,12.6v.1Z" fill="#039"/>
    <path id="Tracciato_2375" data-name="Tracciato 2375" d="M33.3,73.6l-13-3.8.2-.4a20.775,20.775,0,0,1,14.1-10h.5L34.6,73l-.3.8ZM21.6,69.3l11.9,3.5h.4v-.2L34.5,60a20.6,20.6,0,0,0-12.9,9.3Z" fill="#039"/>
    <path id="Tracciato_2376" data-name="Tracciato 2376" d="M23.6,94.4l-.3-.4a23.245,23.245,0,0,1-3.9-6.2v-.2a20.264,20.264,0,0,0,.6-4.3v-.4h0l-1.4,1,1-2v-.3a2.016,2.016,0,0,0-1.1.3l-.5.3v-.6a28.054,28.054,0,0,1,0-4.1V77l13.1,4.8.5.3-.3.9Zm-3.4-6.8a20.984,20.984,0,0,0,3.4,5.5l7.1-10.4v-.3L18.5,78a14.054,14.054,0,0,0,0,2.9,1.95,1.95,0,0,1,1.5,0h0c.3.2.3.6.1,1.2a1.6,1.6,0,0,1,.5,1A22.823,22.823,0,0,1,20.2,87.6Z" fill="#039"/>
    <path id="Tracciato_2377" data-name="Tracciato 2377" d="M38.8,100.9A22.46,22.46,0,0,1,30,99l-.5-.2,8.7-11,.5-.4.5.4h0l8.5,11-.3.2A21.144,21.144,0,0,1,38.8,100.9Zm-8-2.4a19.977,19.977,0,0,0,15.9,0L38.9,88.3Z" fill="#039"/>
    <path id="Tracciato_2378" data-name="Tracciato 2378" d="M53.9,94.5,46.3,83.1l-.3-.9.4-.3h0l13.1-4.7v.5a26.2,26.2,0,0,1,0,5.6v.4h-.7a.3.3,0,0,0,0,.4,3,3,0,0,0,.4,1v.2A22.567,22.567,0,0,1,54.4,94ZM47,82.8l7,10.5a20.363,20.363,0,0,0,4.3-7.9,5.638,5.638,0,0,1-.4-1.2,1.113,1.113,0,0,1,.3-1l.6-.3a24.319,24.319,0,0,0,.2-4.7L46.9,82.5Z" fill="#039"/>
    <path id="Tracciato_2379" data-name="Tracciato 2379" d="M76.4,85.7a2.717,2.717,0,0,0,.3-3.3c.2-1.6,0-2.6-.5-3.1-.5-.4-1.3-.3-2.2.4-.5-.3-1.2,0-2.1.8a1.7,1.7,0,0,0,0-1,3.491,3.491,0,0,0,1.5-1.2,3.4,3.4,0,0,0,.3-2,11.135,11.135,0,0,1,1.5-3.1c.7-1.5.2-2-1.4-1.5a2.969,2.969,0,0,0,1.3-2,3.322,3.322,0,0,0-.7-2.1q-.3-.75-.9-.3a1.978,1.978,0,0,0,.2-1.1,7.862,7.862,0,0,0-.8-2.6c0-1.8-.5-2.4-1.3-2.2a6.22,6.22,0,0,0-.9-2.6c-.7-1.1-1.3-1.4-1.7-.8-1.2-1.7-2.3-2.4-3.3-2.2a3.176,3.176,0,0,0-.8-2,5.134,5.134,0,0,0-1-2.4c-.5-.2-.9,0-1.1.9a8.3,8.3,0,0,0-.6-2.1,1.714,1.714,0,0,0-1.6-1.1,2.2,2.2,0,0,0-.8.1,3.08,3.08,0,0,0-1.2-.5c-1-1.1-2-1.2-2.8-.3l.2-.9c-.3-1.1-.9-1.3-1.8-.7a13.547,13.547,0,0,0-3.7-3c-.9-.3-1.4-.2-1.7.2a2.851,2.851,0,0,0-1.4-.8,8.331,8.331,0,0,1-1.5-.4c-.7,0-1,.4-.9,1.1a4.282,4.282,0,0,0-2.2.6,1.091,1.091,0,0,0-.3,1.3,2.539,2.539,0,0,0,1.3,1.4,1.163,1.163,0,0,0-.2,1c0,.5.5.8,1.4,1.1a3.4,3.4,0,0,0,2,0,.883.883,0,0,0,.5,1.2c.1,0,.1.1.2.1a2.918,2.918,0,0,0,3.3.7v.9l1.7.7a1.975,1.975,0,0,0,1.2,1.8l.7.3a5.547,5.547,0,0,0-.8.6.75.75,0,0,0,0,.9c.1.2.3.2.5.3h2.3a6.89,6.89,0,0,0,.3.8,6.233,6.233,0,0,0,.9,1.2A6.356,6.356,0,0,0,60,60.2c-.2.4-.3.8-.5,1.2a5.019,5.019,0,0,0-.2,1.2,2.016,2.016,0,0,0,.3,1.1,1.791,1.791,0,0,0-.7.5c-.6.8.7,2.1.8,2.4l-.6.3a1.327,1.327,0,0,0,.9,2,10.049,10.049,0,0,1,2.4,1.6,17.357,17.357,0,0,1,1,1.5c.5.7.6,1,1.3,1v.3a18.471,18.471,0,0,0,2.1,4.5l.2.4.5.9a10.049,10.049,0,0,1,1.6,2.4,6.6,6.6,0,0,0-.1,1.4,18.908,18.908,0,0,1-.8,4c-1.3-.6-1.5.2-1.7,1,0,0-.6,0-.7.2v-.3c-.2-.3-.8-.6-1.1-.3l-.3.5-.2-.8a3.3,3.3,0,0,1,0-1.4l.1-.2c0-.1.3-.4.4-.6a5.8,5.8,0,0,0,0-3.2,3.545,3.545,0,0,0-.3-1.1,1.779,1.779,0,0,0-.7-.8s-.8,0-.9.5c0-.3-.5-.5-.8-.5-1-.2-2,1.6-1.9,3.4a2.768,2.768,0,0,0-.9-.1.793.793,0,0,0-.9.9,5.638,5.638,0,0,0,.4,1.2A18.507,18.507,0,0,1,60.6,89a1.133,1.133,0,0,0-2,.8,3.36,3.36,0,0,0,.5,1.4c-.3,1.4,1.4,2.4,2.7,3.8,0,.6.1.6.3.8h0l-1.8,2.8s-1.1-.6-1.5-.2a3.915,3.915,0,0,0-.8,1l.2,1.6a2.544,2.544,0,0,1-1.1,2.4,8.068,8.068,0,0,0-1.7,2.4,3.321,3.321,0,0,1-1.8,1.7,2.7,2.7,0,0,0-.7-.8c-.1-.1-.2-.2-.4-.1a33.288,33.288,0,0,0-6.1,2.7,8.763,8.763,0,0,0-2.3,2.4H42.4a5.826,5.826,0,0,1-1.5-1.1q-.6-.45-2.1.3a3.471,3.471,0,0,0-2.8.6,1.287,1.287,0,0,1-1.2.1l-2.2-2.4a27.129,27.129,0,0,0-7.4-2.6,2.94,2.94,0,0,0-1,1.2,8.2,8.2,0,0,1-2-1.7l-1.4-1.6a3.756,3.756,0,0,1-1.1-3.3l.2-1.4a.454.454,0,0,0,0-.5,2.725,2.725,0,0,0-1.2-.6s-.2,0-.5.7c-.5-.6-1-1.3-1.5-2v-.1a10.907,10.907,0,0,0,1.4-3.1,20.476,20.476,0,0,0,.7-4.2.215.215,0,0,1,.2-.2,5.838,5.838,0,0,0,.8-2.2,17.59,17.59,0,0,0,.6-4.6c0-.5-.2-.7-.3-.7h-.4l.3-.5a1.069,1.069,0,0,0,0-.8,2.966,2.966,0,0,0-1.6.2h0a7.283,7.283,0,0,0-.7-2.4c0-.1-.2,0-.3,0a7.032,7.032,0,0,0-2.3,4.5l-.3.7a16.965,16.965,0,0,0-1,1.4c0,.2-.3.4-.4.7a21.017,21.017,0,0,0-1.3,2.6,21.718,21.718,0,0,0-.7,2.4,13.355,13.355,0,0,1-.7-1.8,2.966,2.966,0,0,1-.2-1.6,1.063,1.063,0,0,0-.2-1.2,14.192,14.192,0,0,1-1.2-4,9.006,9.006,0,0,1,.8-2.8,33.3,33.3,0,0,1,2.4-4.6c.2-.2.4-.5.7-.6a2.506,2.506,0,0,0,.7-.4c2.1-1.7,6.8-8.1,7.1-12V61a5.968,5.968,0,0,0,.9-1.5c.5-.8,1-1.8,1.5-2.7A14.167,14.167,0,0,0,24,55l.4-.1.2-.2a36.574,36.574,0,0,0,3.9-1.8l1.8-1a16.537,16.537,0,0,0,3.6-2.2,5.3,5.3,0,0,0,1.9-3.3c-.2-.3-.8-.4-1.8-.5a2.732,2.732,0,0,0,.8-1.9c-.4-.5-1.5-.6-3.5-.3a18.607,18.607,0,0,0-5.4,2.4,18.19,18.19,0,0,0-4.2,3.6,19.019,19.019,0,0,0-3,4.4l.9-2.1c.4-1,.9-2.1,1.4-3.4a3.3,3.3,0,0,0,0-1.4c0-.2-.3-.3-.8-.2a8.322,8.322,0,0,0-2.6,1.9A18.628,18.628,0,0,0,14,54.1a51.142,51.142,0,0,0-2.2,4.8,9.708,9.708,0,0,0,0-3.4c-.1-.4-.5-.5-1-.3a5.356,5.356,0,0,0-1.5,1.5L8,58.6a23.988,23.988,0,0,0-1.6,2.7,19.657,19.657,0,0,0-1.6,4,42.3,42.3,0,0,0-1.1,6.2,18.7,18.7,0,0,0,.4,5.3A23,23,0,0,0,5.5,81c.5.9.9,1.4,1.4,1.5.3.7.6,1.8,1.1,3.3a4.529,4.529,0,0,1,.3,1.6.829.829,0,0,0,.3.8,2.177,2.177,0,0,1,.5.8,19.657,19.657,0,0,0,1.6,4,12.31,12.31,0,0,0-.2,2C9,90.8,7.9,87.7,7,85.6,5.2,81.8,3.9,80,2.9,80.3A1.424,1.424,0,0,0,2,81.6v2.1a20.679,20.679,0,0,0,.3,3.5,23.078,23.078,0,0,0,4.6,9.9l3.3,3.8a7.006,7.006,0,0,0,1.9,1.5,2.492,2.492,0,0,0,1.7.3,33.746,33.746,0,0,0,2.8,3.8,2.855,2.855,0,0,0,2.3,1.6,1.625,1.625,0,0,0,1.5,1.1h.7a22.53,22.53,0,0,0,2.4,2.1l-.8,2.4c-1.4.2-2.7.3-4.1.4-1.2-.8-2.8-2-4.8-3.4V108a4.025,4.025,0,0,1,.5-2.4,1.613,1.613,0,0,0-.8-1.4,3.936,3.936,0,0,0-2.1-.6c-.2,0-.3.2-.3.5v1.5H6.5a1.777,1.777,0,0,0-1,.4,2.616,2.616,0,0,0,0,1.8,1.387,1.387,0,0,1,0,.9,12.58,12.58,0,0,1-1.7,3.5,1.826,1.826,0,0,0,.2.9,10.614,10.614,0,0,0,1.7,2,8.622,8.622,0,0,0,1.8,1.4c.8.6,2.2,1.4,4.2,2.6a54.485,54.485,0,0,0,6.8,3.5c.5,0,3.4-.4,9-1.2v.5c-1.6,1.2-2.6,1.7-3.1,1.5s-.8.5-.6,1.4a1.589,1.589,0,0,0,1,.8l.6.7,1.7,1a2.775,2.775,0,0,0,1.8,0,1.77,1.77,0,0,0,1.1-1.4l2-2,1.3-1a2.432,2.432,0,0,0,2-1.1.963.963,0,0,1,.4-.9l1.6-1.1c0-.1.7,0,1.9.8a2.208,2.208,0,0,0,1.6,0l1.2-.7a17.777,17.777,0,0,1,5.5,3.9,1.058,1.058,0,0,0,.5.9,3.63,3.63,0,0,0,1.7.7l.6,1.2.6.2a3.541,3.541,0,0,0,2.6-1l1-.3a1.546,1.546,0,0,0,.7-1.2l-.4-.4-.8-.2a18.52,18.52,0,0,1-3.3-2.1l-.7-.5c3.3.6,7.3,1,12.1,1.4a3.407,3.407,0,0,0,2.4-.9c1-.8,4-2.9,9.1-6.5a7.5,7.5,0,0,0,1.8-2.8,5.675,5.675,0,0,1-1.2-1.8,11.764,11.764,0,0,1-.7-2,3.3,3.3,0,0,1,0-1.4,1.11,1.11,0,0,0-.4-1.1c-.1-.2-.5-.3-1-.4a17.1,17.1,0,0,0-3.2,0c-.6,0-.9-.2-1-.4V104c0-.5,0-.7-.4-.6a4.286,4.286,0,0,0-2.4,1,.823.823,0,0,0-.1,1.2l.1.1a1.389,1.389,0,0,1,.5,1c-.1,1.3-.3,2.7-.5,4a32.782,32.782,0,0,1-4.4,3.2,12.46,12.46,0,0,1-4.3-.2,3.467,3.467,0,0,1-1-2.2c.8-.5,1.5-1,2.4-1.6.5-.1,1-.2,1.4-.3s.6-.5.6-1.1a1.375,1.375,0,0,0,.8-1l2.6-3.1a6.008,6.008,0,0,1,2.8-1.3,11.562,11.562,0,0,0,4.7-2c.3-.3.3-.8,0-1.4a14.847,14.847,0,0,0,2.8-2.8,2.6,2.6,0,0,0,.4-2.4,8.785,8.785,0,0,0,1.9-3.4,9.638,9.638,0,0,0,0-2.4l1.2-.9a1.314,1.314,0,0,0,.3-1C76.9,86.4,76.7,86,76.4,85.7ZM53,52l-1.5-.5v-1l-.8.2a2.375,2.375,0,0,1-2.4-.7c-.5,0-.8-.1-.7-.6s.1-.7-.2-.7H46a2.837,2.837,0,0,1-1.7-.7c-.2-.3,0-.7.4-1.1a2.7,2.7,0,0,1-1.5-1.1c-.2-.4-.1-.7.4-.9a3.943,3.943,0,0,1,2.4-.1.955.955,0,0,1-.2-1q0-.6,2.4.6l.9.5a.962.962,0,0,1,1.2-.4h0a7.607,7.607,0,0,1,1.9,1.2,18.883,18.883,0,0,1,2,2c.6-.4,1.1-.3,1.3.3l.1,1.1a1.829,1.829,0,0,0-2.4-.1l-.6-.3A10.049,10.049,0,0,1,51,46.3c-.2-.7-.3-.8-.3-.2a4.471,4.471,0,0,0,1.1,2.3,6.384,6.384,0,0,1-2.9-1.6,20.024,20.024,0,0,1-1.4-1.6c-.3-.5-.5-.5-.4,0a8.008,8.008,0,0,0,1.5,2.1l-1.3-.6a7.714,7.714,0,0,0-2.6-.7c-.3,0-.4,0,0,.2a22.5,22.5,0,0,1,2.4.8,4.129,4.129,0,0,1,1.1.7,5.753,5.753,0,0,1-2.6.5h-.8c.2.1.3.2.5.2a7.512,7.512,0,0,0,3.3-.4,16.855,16.855,0,0,0,2.8,1.2,5.575,5.575,0,0,0-1.9.9c-.2.3-.1.3.4,0a5.187,5.187,0,0,1,2.2-.7l.8.3a4.514,4.514,0,0,0,.7,2.5Zm3.6,4.3c-1.7,0-2,0-2.1-.3s0-.4.5-.7l.3-.5c-1-.4-1.9-1-1.9-2.2l.8-.3q.6-.6,0-.9c-.4-.2-.6-.8-.6-1.7s1.1-.7,2.4,0c.6-1.1,1.2-1.4,2.1-1a1.341,1.341,0,0,0-1.5,1.1,4.845,4.845,0,0,0,0,1.7,5.73,5.73,0,0,0-1.1-1.1c-.8-.4-1-.4-.5.1s.9,1,1.4,1.6a2.737,2.737,0,0,1-2.2.9c-.3,0-.2.2.1.2a2.845,2.845,0,0,0,1.3,0,4.671,4.671,0,0,0,.3,1.7A5.73,5.73,0,0,0,57,56,1.38,1.38,0,0,0,56.6,56.3Zm.9.9q0-.6.9-.6,1.05,0,.3-.6a4.825,4.825,0,0,1-2.2-1.5c-.4-.5-.4-.9,0-1.1l.7-.2.3-.4-.4-1.6a1.43,1.43,0,0,1,.7-1.7,3,3,0,0,1,2.4.7c0-.4.3-.5.8-.4s1,1.3,1.5,3.3l.7.3c.2-.6.4-.8.6-.8s.5.5.7,1.5a3.293,3.293,0,0,1,.8,2.5,3.292,3.292,0,0,0-.6,1.9l-.3-.8a13.329,13.329,0,0,1-.3-2.8c0-.4,0-.4-.1,0a8.1,8.1,0,0,0,0,2.2,17.271,17.271,0,0,0-2.6-2.8,5.5,5.5,0,0,1-.2-2.2c0-.7-.1-.9-.2-.5A9.638,9.638,0,0,0,61,54a17.554,17.554,0,0,1-2.4-3q-.3-.6-.3-.3a12.706,12.706,0,0,0,1.8,2.7c.6.7,1.1,1.3,1.5,1.7a14.62,14.62,0,0,0-2-.5,4.939,4.939,0,0,1-1.6-.5c-.5,0-.4,0,0,.3a4.939,4.939,0,0,0,1.6.5,6.805,6.805,0,0,1,2.4.8,5.171,5.171,0,0,1,1.5,1.8l.6,1.2a9.178,9.178,0,0,0-2.8-.9,6.07,6.07,0,0,1-1.8-.5q-1.2-.45-.3,0a6.033,6.033,0,0,0,1.9.6,9.816,9.816,0,0,1,3.2,1.3v.3a1.163,1.163,0,0,0-.2,1l.3.9c-.3-.3-.6-.2-1.1.5a.755.755,0,0,0-.1-.8,7.32,7.32,0,0,0-3-1.9l-.3.5A3.751,3.751,0,0,1,57.5,57.2ZM68.4,79.5c-.3-.5-.8-1.2-1.3-2.1-.5-.8-.9-1.6-1.3-2.4a2.263,2.263,0,0,1-.1-1.8v-.1l.3-.9.1-.4v-.2l-.2.3a6.943,6.943,0,0,0-.5,1.3v.1l-.8-2.4a2.663,2.663,0,0,1,.3-1.2A16.637,16.637,0,0,1,66.2,67c.3-.5.3-.6,0,0a7.608,7.608,0,0,0-1.5,2.8c0,.3-.2.5-.2.8l-.5-.8-1.1-2.4A7.646,7.646,0,0,1,64,64.2q.6-1.2-.3,0a12.234,12.234,0,0,0-1,2.4c-.1-.5-.3-1.1-.4-1.5-.1-.5-.4-1.3-.6-1.9l-.3-.9h-.3l.1.3v.1a14.012,14.012,0,0,0,.6,2.8,3.582,3.582,0,0,0,.4,1.1c-.3-.2-.5-.4-.8-.6-.4-.2-.7-.4-1.1-.6s-.4-.1,0,.1c.3.2.7.4,1,.6a9.016,9.016,0,0,1,1,.9c.4.8.7,1.6,1,2.3a8.265,8.265,0,0,0-1.3-.7c-.4-.2-.9-.4-1.4-.6s-.5,0,0,.2a11.939,11.939,0,0,1,1.6.8,4.44,4.44,0,0,1,1.1.8,1.38,1.38,0,0,1,.3.4l.9,2.4c-.3,0-.8-.5-1.3-1.5a6.46,6.46,0,0,0-3.4-2.4.811.811,0,0,1-.5-.9c0-.3.4-.5,1-.4a6.721,6.721,0,0,0-.6-1.2l-.3-.5c-.5-1-.2-1.5.8-1.5a1.771,1.771,0,0,1-.4-1.4v-.2a3.708,3.708,0,0,1,.4-1.4,3.582,3.582,0,0,0,.4-1.1c.6.3,1.1.6,1.5.8a1.3,1.3,0,0,1,.8,1.2l-.2,1.4c0,.3.3.2.7-.3a2.581,2.581,0,0,1,.9-.9,2.361,2.361,0,0,1,.9.8,4.163,4.163,0,0,1-.3,3.1l-.5,1.3c1-1.4,1.8-2,2.4-1.9a.9.9,0,0,1,.2.9A3.788,3.788,0,0,0,67,68a1.3,1.3,0,0,1-.5,1.3,2.465,2.465,0,0,0-.8,1.7c1-.7,1.4-.6,1.2.4l-.5,1.9c-.1.9,0,1.4.5,1.3.5,0,.7,0,.8.2a1.387,1.387,0,0,1,0,.9,5.638,5.638,0,0,0-.4,1.2.764.764,0,0,0,.2.5q.15.15.9,0c.5-.2.7,0,.7.4v1.4a2.836,2.836,0,0,0,.4,1.3,1.555,1.555,0,0,0,.8.6h0l.4-.5c-.6,0-.9-.3-.8-1.2a6.045,6.045,0,0,0,0-1.9c-.2-.6-.5-.9-.7-.9a14.427,14.427,0,0,1-1.7-4.5h.9c.7,2.4,1.2,3.8,1.6,4s.6.4.6.7a8.752,8.752,0,0,0,.2,1.6q.75-.15.9-1.5a1.615,1.615,0,0,0-.7-1.8c-.6-.4-1-.7-1.1-1a.684.684,0,0,1,.6-.9c.6-.1-.5-.9-2.4-2.2q-1.5-1.05-.9-1.8c.4-.5.4-.3.8,0s.7.3.8.2,0-.7-.5-.9-.8-.3-.8-.6V66a2.438,2.438,0,0,0,0-1.2c-.3-.5-.9-.4-1.9,0a2.572,2.572,0,0,0,.1-1.5,3.694,3.694,0,0,0-.7-1.4l-.4-1.4c-.1-.5.1-.8.8-1a3.4,3.4,0,0,1,0-2,9.293,9.293,0,0,0,.5-1c0-.3.4-.3.8,0a9.982,9.982,0,0,1,2.2,2.4c.5-.5.9-.3,1.4.6a4.551,4.551,0,0,1,.6,3q1.65-.9,1.2,1.2a11.725,11.725,0,0,1,.9,2.4,1.971,1.971,0,0,1-.3,1.5,2.1,2.1,0,0,0-.4,1.1q0,.45.3,0a2.925,2.925,0,0,1,1.2-.7,3.32,3.32,0,0,1,.5,1.6,1.738,1.738,0,0,1-.6,1.1,2.666,2.666,0,0,0-.7,1.4c0,.3.1.4.4.4l.8-.2c.4,0,.4.3,0,1a12.147,12.147,0,0,0-.9,2,3.079,3.079,0,0,0-.3,1.3c0,.7-.1,1.1-.4,1.2a12.188,12.188,0,0,0,0-2.7A15.469,15.469,0,0,0,72,72a5.119,5.119,0,0,0,1-2.1c.2-.6.2-.7-.1-.2a4.248,4.248,0,0,1-1,1.7c-.3-1.1-.7-2.4-1.1-4a7.085,7.085,0,0,0,.9-2.8c0-1,0-1-.2-.2a4.9,4.9,0,0,1-1,2.6c-.4-1.3-.8-2.4-1.2-3.5a16.353,16.353,0,0,0,.2-2.2c0-.8,0-.9-.2,0a8.753,8.753,0,0,1-.2,1.6l-1-2.4-.6-1.4c-.2-.5-.3-.5-.2,0L68,61a6.885,6.885,0,0,0-1.3-1.1c-.4-.2-.5-.2-.2,0,.6.6,1.2,1.2,1.7,1.8.4,1,.8,1.9,1.2,3A7.76,7.76,0,0,0,67,63.1q-.9-.3,0,.3a18.567,18.567,0,0,1,2.9,2.7L71,68.8a7.957,7.957,0,0,1-2.1-2c-.4-.4-.4-.3,0,.2a11.31,11.31,0,0,0,2.3,2.6l.7,2.7a13.948,13.948,0,0,0-2.7-2.1c-.5-.3-.5-.2,0,.2a14.7,14.7,0,0,1,3,3.1,14.36,14.36,0,0,1,.4,4.6c0,.6-.4,1-1.3,1.3h0l-.3,2H69.9Zm1.4,2.1h1c-.4,2.3-.9,4.8-1.3,6.3l-.6-.4A29,29,0,0,0,69.8,81.6ZM61.9,94.4l-1.5-1.2c-.8-.7-1-1.3-.7-1.8l-.6-.9a1.1,1.1,0,0,1,.1-1.1c.2-.3.8-.2,1.6.5a3.787,3.787,0,0,0,0-1.5,5.023,5.023,0,0,0-.5-1.3,10.814,10.814,0,0,0-1.1-1.8,6.89,6.89,0,0,0-.3-.8v-.3h0a.873.873,0,0,1,.8.4c.8-.8,1.2-1,1.5-.7a4.923,4.923,0,0,1,.6,1.7,9.637,9.637,0,0,1,0,2.4h-.2l.2.2a12.31,12.31,0,0,1-.2,2,1.445,1.445,0,0,0,.2.7h0v-.8a4.284,4.284,0,0,1,.3-1,2.92,2.92,0,0,0,.2-.9s0-.1-.2-.1a.781.781,0,0,0,.4-.4.454.454,0,0,0,0-.5V85.8a11.019,11.019,0,0,0-.2-1.8,5.073,5.073,0,0,1-.2-.9c0-.2-.2-.3-.5-.4s-.8.3-1.4,1a7.862,7.862,0,0,1,.8-2.6c.3-.4.6-.6.9-.4a1.7,1.7,0,0,1,.6.6c0,.2.2.2.4-.1s.4-.2.4-.2a2.092,2.092,0,0,1,.4.6,6.89,6.89,0,0,0,.3.8,8.6,8.6,0,0,1,.1,1.6v.2a2.954,2.954,0,0,1-.2,1.3h0a1.689,1.689,0,0,0-.3,1,5.485,5.485,0,0,0,.3,2.4,2.507,2.507,0,0,0,.7-.4.618.618,0,0,1,.7-.2c.1,0,.3.3.3.9v.4c0,.8,0,.9.2.2.2-.6.3-1,.7-1,.3,0,.4.9.2,2.6A19.467,19.467,0,0,0,64.3,94a2.208,2.208,0,0,1,0-1.6,4.179,4.179,0,0,0,.4-1c.1-.4.2-.7.3-1v-.2c.1-.5,0-.5-.2,0h0l-.5.9a3.508,3.508,0,0,1-.5.8c-.1-.7-.3-1.3-.4-1.9l-.1-.6c-.3-.8-.3-.8-.2,0v.5c.2,1.2.3,2.4.4,3.6A19.2,19.2,0,0,0,62,92.1l-.4-.3a4.741,4.741,0,0,1-1-1c-.3-.2-.4-.2-.2,0a10.949,10.949,0,0,0,1,1.1l.6.5a7.993,7.993,0,0,1,1.3,1.3c.1.2.2.3.3.5a10.628,10.628,0,0,1-.9,1.1h-.2a.764.764,0,0,1-.2-.5C62.2,94.7,62.1,94.5,61.9,94.4Zm-2.4,4.4c.4,0,.9.2.8.5s-.3.8-.6.9c-.3,0-.9-.4-.9-.8,0-.2.3-.5.7-.6ZM45.9,110.7a7.552,7.552,0,0,1,1.4-1.1,29.057,29.057,0,0,1,5.1-2.2c.1-.1.3,0,.4.1l.4.5-.5.3a2.016,2.016,0,0,1-1.1.3,3.166,3.166,0,0,0-1.6.4,1.619,1.619,0,0,0-1.1,1.2,1.157,1.157,0,0,1-.5.7l-1.8.9H45.2Zm3.6.3a.967.967,0,0,1,.5-1.2,2.276,2.276,0,0,1,1.6-.4c.2,0,.2.5,0,1.3q-.3.6-2.7,1.5l-1.5-.2,1.6-.9.4.6h.2Zm-8.6.3.4.4-1-.5Zm-15.3-4a.908.908,0,0,1,1,0l2.1,1,3.7,1.4a16.32,16.32,0,0,1,1.7,2,19.419,19.419,0,0,0-2.4.2l-1.9-1.3-1.7-2a2.836,2.836,0,0,0-1-.9,1.672,1.672,0,0,0-1.2-.1c-.2,0-.4.3-.7.9h0c-.1-.8.1-1,.4-1.2Zm2.1,1.9a1.483,1.483,0,0,1-1.3,0l-.7-.6c.2-.6.6-.8.9-.6l.7.6ZM19.8,84a23.579,23.579,0,0,1-.4,2.8,22.5,22.5,0,0,1-.5,2.2c0-1.1-.1-2.2-.2-3.2l.2-.6.2-.6c0-.4,0-.4-.2,0v.1l-.2.3v-.9h0l.6-.9C19.7,82.8,19.9,83,19.8,84Zm-.7-2.5c.4,0,.5,0,.2.6l-.9,1.2V82A4.233,4.233,0,0,0,19.1,81.5Zm-3.5,2.1c.6-2.4,1.2-3.8,1.8-3.9a20.078,20.078,0,0,1,.8,4.8,33.15,33.15,0,0,1,0,6.3A13.058,13.058,0,0,1,17,95.6L16.4,97V92.5c0-1.2,0-2.7.1-4.6,0-1.9.2-4.1.4-6.6v-.4a50.085,50.085,0,0,0-.8,9.5v6h0l-.6-.7v-.8a27.553,27.553,0,0,1-.7-4.9v-.8A53.911,53.911,0,0,1,15.6,83.6Zm-3.9,7.5a6.971,6.971,0,0,1,.6-1.9,20.817,20.817,0,0,1,2.8-4.8,25.578,25.578,0,0,0-.5,2.7c-.6,1-1.1,2.1-1.6,3.1-.5,1.2-1,2.4-1.4,3.6a20.023,20.023,0,0,0-.4,2.4A12.864,12.864,0,0,1,11.7,91.1Zm2.9,3.8-1-1.3.7-1.8A15.526,15.526,0,0,0,14.6,94.9ZM35,46.6a2.968,2.968,0,0,1-1,1.9,16.585,16.585,0,0,1-3.9,2.6c-1.6.8-3.6,1.8-6.1,2.9v-.3a83.182,83.182,0,0,1,8.5-5.6c.7-.4.6-.5-.2-.3a11.65,11.65,0,0,0-2.8,1.6L24,52.9v-.5a32.318,32.318,0,0,1,8.4-5.8A5.7,5.7,0,0,1,35,46.6ZM24.9,47.7a15.915,15.915,0,0,1,5.9-3.1,9.246,9.246,0,0,1,2.9-.4c.4,0,.5.3.3.7l-1,1.3a10.91,10.91,0,0,0-3.5,1.5,32.722,32.722,0,0,0-4.8,3.5l-.6.4c-.3-.2-.9,0-1.8.3a53.663,53.663,0,0,1,7.3-5.2,7.9,7.9,0,0,0,2.3-1.4,13.9,13.9,0,0,0-2.8,1.2c-2.1,1.2-4.1,2.6-6.1,4l-2.6,2.4A18.563,18.563,0,0,1,24.9,47.7Zm-2.8,5a1.689,1.689,0,0,1,1-.3,2.437,2.437,0,0,1,0,1.2,20.739,20.739,0,0,1-1,3.3l-.3.7-.6,1.1-.8,1.5a6.81,6.81,0,0,0-3.3,1.6c.6-.9,1.2-2,2-3.2s1.9-3,3.6-5.4q.45-.75,0-.3a25.6,25.6,0,0,0-2,2.6c-1.6,2.2-3.1,4.6-4.5,6.9-.1.1-.2.3-.3.4l-.2.2-.2.3v.2l-.1.2v.1l-.5.3v.2l-.1.2v.4l-.3.4-.1.2c-.1.1-.2.3-.3.4h0l-.3.5-.1.2-.3.4c0,.2-.3.4-.4.7h0l-.5.4c-.1.2-.6.2-1.3.3L9.7,72.7c.1.2.5,0,1.1-.2a1.568,1.568,0,0,1-1.4.9L9,73.2l-.2-.7v-.4h.4l1.6-4L9.8,67l.2-.6c.3.6.6,1,.8,1q.6-1.2,1.8-3.3a43.772,43.772,0,0,1,2.8-4.2v-.4c0-.2,0-.2.3,0l2.2-3.3-1.8,3.2c.3.3.2.5-.4.7a32.037,32.037,0,0,0-4.4,7.6l.4.1c.3.1.5,0,.8-.3l2.7-4.8,2.6-4.8A16.871,16.871,0,0,1,22.1,52.7ZM12.4,68.8A21.186,21.186,0,0,0,11,71.9h-.4l.9-2.9Zm-2,4.8L9.5,76l-.6,2.1.2-1.8L9.4,75l.3-1.3ZM8.9,71.5c.2-1.2.5-2.5.8-3.7l.4.5Zm6.5-16.1a26.672,26.672,0,0,1,2.2-3.6c.3-.7.1-.7-.5,0A47.224,47.224,0,0,0,12,60.5l.8-2.2a30.9,30.9,0,0,1,1.4-3.2,26.482,26.482,0,0,1,2.4-4c.8-1,1.3-1.6,1.6-1.9,1.1-.9,1.7-1.4,1.9-1.3a.637.637,0,0,1,0,.6L18,54.3a60.357,60.357,0,0,1-5.6,8.6L10.6,65a5.547,5.547,0,0,1-.6.8l.2-.8.8-1.3A60.289,60.289,0,0,0,15.4,55.4Zm-6,32.7A1.978,1.978,0,0,0,9.2,87a2.01,2.01,0,0,1-.4-.8,7.354,7.354,0,0,0-.6-1.8,7.945,7.945,0,0,1-.6-2.2h0a3.321,3.321,0,0,1-1.7-1.8,20.739,20.739,0,0,1-1-3.3,19.475,19.475,0,0,1-.4-4.8,36.263,36.263,0,0,1,1-6.6,20.557,20.557,0,0,1,4.6-8.6c.5-.6.8-.7.9-.4a20.454,20.454,0,0,1,0,3.5,27.436,27.436,0,0,1-.9,3.9A70.175,70.175,0,0,0,8,71.9c-.5,1.6-.9,3.6-1.5,6.2a28.27,28.27,0,0,1,.4-7.7,30.3,30.3,0,0,1,2-8.4c.4-.9.4-1,0-.4A31.393,31.393,0,0,0,5.7,75.4,17.82,17.82,0,0,0,6,80c.3.9.7,1.5,1,1.6a.854.854,0,0,0,.7,0A15.728,15.728,0,0,0,8,78.9a11.209,11.209,0,0,1,.3-2.4,7.06,7.06,0,0,1,.6-2.4l.2-.1a25,25,0,0,0-.5,2.9v1.6a22.4,22.4,0,0,1-.2,3.1c.4-1.2.8-2.4,1.2-3.5l1.4-4,1.2-2.9.6-1.4h0a10.908,10.908,0,0,0,.6-1.1l.3-.5.3-.6h0l.3-.5a3.039,3.039,0,0,1,.5-.7c.2-.2.4-.6.6-.8l.1-.2,1.4-2,.8-.8.3-.2h0l.2-.2.2-.6h0l.3-.2h1a1.645,1.645,0,0,1,.1,1h0v.7h0v.1h0a10.208,10.208,0,0,1-1.1,2.9h0l-.1.3h0l-.3.6a.355.355,0,0,1-.2.3l-.4.6a8.341,8.341,0,0,1-.8,1.2l-.2.3-.2.3h0l-.2.3-.2.3-.1.2-.2.3-.7.4h0l-.2.5-.5.6-.4.4h0l-.4.3-.3.3h0l-.3.2h0l2.3-3.7h-.7c0,.1-.1.2-.2.3l-.1.3c-.4.6-.7,1.1-1,1.5l-.2.3-.1.3a.367.367,0,0,0-.1.3l-.5.6v.1c-.6,1.2-1.2,2.3-1.7,3.3a12.806,12.806,0,0,0-1.1,2.4c-.2.6-.6,1.6-1.1,3A6.874,6.874,0,0,0,9,84.6a6.5,6.5,0,0,0,.9,2.3.483.483,0,0,1,0,.7h0a1.907,1.907,0,0,0,.2,1.3,17.6,17.6,0,0,0,1,3l-.1.4A26.127,26.127,0,0,1,9.4,88.1ZM7.9,74.8c-.3,2.4-.6,4.3-.8,5.6L7,80.1a15.951,15.951,0,0,1,.9-5.3Zm14.2,33.6-.6-.8a.494.494,0,0,0-.7-.1c-.3.1-.6,0-.8-.5a1.852,1.852,0,0,1-2.4-.5l-1.5-1.8-1.4-2.4-.5-.4H13l-1.8-1.2a21.336,21.336,0,0,1-2.7-4.6C7.3,93.6,6,91,5,88.3c-.5-1.5-.8-2.4-.9-2.8s-.2-.4-.2,0a10.884,10.884,0,0,0,.7,2.4A45.607,45.607,0,0,0,7,93.6c1,2,1.9,3.9,2.9,5.5a26.484,26.484,0,0,1-4.8-6.7,22.708,22.708,0,0,1-2-5.7,11.529,11.529,0,0,1-.3-2.6,8.1,8.1,0,0,1,0-2.2.726.726,0,0,1,.6-.6c.3,0,.6.4,1.2,1.3a24.423,24.423,0,0,1,2.6,5.7,58.64,58.64,0,0,1,2,5.8,11.216,11.216,0,0,0,.8,2.4l.9,2.1a6.915,6.915,0,0,0,1.6,2.2l.3.2h.9l-1.2-2.4c-.2-.5-.2-.9-.6-.8l.2.3a.454.454,0,0,0-.5,0h-.1l-.2-.1h0v-.3h0v-.3a11.647,11.647,0,0,1,.6-2.8.551.551,0,0,1,.2-.5v-.4c.1-.2.1-.4.2-.5,0-.2,0-.4.2-.5h0v-.5h0c.1-.2.1-.3.2-.5l.4-.9.2-.5h0l.3-.6.3-.6h0c0-.1,0-.2.2-.3l.4-.7a14.052,14.052,0,0,0-.2,1.8v.6a61.568,61.568,0,0,0-2.4,6c-.3,1.1-.3,1.6,0,1.6l.6-.4-.3-.6.2-.5.5.9.3-.2.3.4-.4.3,2,2.9.5-.4.4.4c-.6.6-.8,1-.7,1.2l1.5,2.4c.9,1.3,1.6,1.7,2.2,1.1a.846.846,0,0,1,.7,0,3.805,3.805,0,0,1,.9,1.3v-1L19,104.3l-.9-1.9c-.8-1.1-1.3-1.9-1.7-2.5-.3-.6-.7-1.3-1.2-2.2-.5-.8-1.1-1.8-1.8-2.8v-.5l1.4,1.7a32.822,32.822,0,0,1,2.7,3.8q.75,1.2.9.6l.3-.8.4.2-.3,1.7v.5c0,.4,0,.7.2.8a1.009,1.009,0,0,1,.5.8,8.467,8.467,0,0,0,1.4,1.9,15.459,15.459,0,0,0,2.7,2.4l2.4,1.5q.9.6.9,1.2l.8.2-.3-.9.5-.1a2.286,2.286,0,0,1,.7,1c.8.6,1.5,1.1,2,1.4l-2,.4-3.4-2ZM13.9,97.8l.3-.3,1.3,2.1-.1.3ZM16,102l.5-.6,1.2,1.7.7,1.2.2.7a3.126,3.126,0,0,1-1.1-.9l-.7-.9Zm10.3,10.8-2.7.5.6-1.8Zm6.4,8.4a29.8,29.8,0,0,1-4.3,3.5l-.5-.2c.9-.6,2.2-1.5,3.9-2.8l.8-.8h-.4a17.344,17.344,0,0,1-2,1.5,16.542,16.542,0,0,1-2.5,1.5l-1.3.6.2.3,1,.1c.6.3.8.7.7,1.1s-.8.5-1.4.2l-1.1-.6a3.6,3.6,0,0,0-1.2-.8l-.5-.4.2-.4,1.3.5H26l-.2-.8,1.6-1a.618.618,0,0,0,.5-.8l.1-.8a4.086,4.086,0,0,0,2.2-.3,8.78,8.78,0,0,1,2.3-.7c.7.5.7.8.2,1.1Zm-1.1-1.8-4.2.9c-3.1.6-6.2,1-9.3,1.4a52.623,52.623,0,0,1-6.7-3.4,35.77,35.77,0,0,1-5.5-3.8q-1.8-1.95-1.5-2.4A15.046,15.046,0,0,0,6,108.7a1.7,1.7,0,0,0,0-1c-.3-1,0-1.5.7-1.6a26.7,26.7,0,0,1,4,0c.3,0,.5,0,.6-.3l.7-1.4-.4-.2-.5.8v-1c0-.2,0-.2.3-.1,1.3.3,1.8.8,1.7,1.3a3.424,3.424,0,0,0-.5,2.2v2.4A31.477,31.477,0,0,0,7.5,107h.7a.55.55,0,0,0,.5-.3c0-.2,0-.3-.5-.3a5.537,5.537,0,0,0-1.8.2.6.6,0,0,0,0,.8,66.274,66.274,0,0,1,5.9,3.1c2.4,1.7,4.6,3,6,4a56.1,56.1,0,0,0,5.9-.6l3.8-.7c1.6-.3,3.2-.6,4.8-.8.6,0,1.4-.1,2.4-.2a21.115,21.115,0,0,0,2.6-.2,10.944,10.944,0,0,1,1.4,3.8c.1.6,0,.9-.2.9a26.171,26.171,0,0,1-7.4,2.7Zm11.5-1.5-.2-.7-1.2,1.5-1,.6a1.872,1.872,0,0,1-1.4.5l-1.6-.8.8-.4.2.2c-.1.5,0,.4.6-.2l1.4-1.4a5.579,5.579,0,0,0-.6-3.1,10.438,10.438,0,0,0-1.1-2.4c0-.3-.8-.3-2.1-.2a3.187,3.187,0,0,1,2.7,0l1.1.4.6-.2.3.3a14.6,14.6,0,0,1,2.6,3.4,2.479,2.479,0,0,1,0,1.7c-.5.8-.8,1.1-1.1.8Zm4.9,6.4c-.3-.2-.4-.4-.2-.6l1,.8c-.2.1-.5,0-.7,0Zm5.8,0h.5l-.2.2-1.2.4a3.1,3.1,0,0,1-1.8.9h-.8l-.2-.6a1.344,1.344,0,0,1,.7-.6c.4-.1.7-.2,1.1-.3l1.1.2Zm-1.7-.5a1.971,1.971,0,0,0-1.5.3H50c-.7-.5-1.4-1-2.1-1.6l-2.1-1.7a3.91,3.91,0,0,1,2.4.2Zm6.5-9a6.729,6.729,0,0,0,2-.1,25.887,25.887,0,0,0,5-3.7,29.64,29.64,0,0,1,6.1-3.8c.5-.3.5-.5,0-.7a14.919,14.919,0,0,0-2.1-.2q-.45.3,0,.6a1.388,1.388,0,0,1,.9,0,40.718,40.718,0,0,0-4.8,3.3c0-.7.2-1.9.3-3.5a1.974,1.974,0,0,0-.6-1.4c-.2-.3,0-.6.9-.8l.6-.2v1l-.9-.1v.4a1.445,1.445,0,0,0,1,.7l2.4.1h1.1q1.95,0,1.8.9a4.3,4.3,0,0,0,0,1.6,9.5,9.5,0,0,0,1.7,3.5,7.607,7.607,0,0,1-1.2,1.9l-2.4,1.5c-2,1.5-4.7,3.3-8.2,5.6A57.143,57.143,0,0,1,44.8,119l-.7-.2.3-.3a5.67,5.67,0,0,0,.8-1.3,7.719,7.719,0,0,0-.2-1.5,6.243,6.243,0,0,0-1.7-2.8v-.3H44a28.653,28.653,0,0,1,5,.7c1.7.4,3.4.7,5.2,1A38.5,38.5,0,0,0,58.6,114.8Zm-3.4-1.2-3.8-.7,1.6-.5c.8.2,1.3,0,1.4-.5a5.305,5.305,0,0,0,.8,1.7Zm9.4-13.2a2.026,2.026,0,0,0-.6,2.1,9.141,9.141,0,0,0-2.4,2c-.6.7-1.2,1.4-1.8,2.2a2.365,2.365,0,0,1-1.3,1.1,1.534,1.534,0,0,1-1.7-.4l-.2,1.1-3,1.9-1.5.6a7.719,7.719,0,0,0,.2-1.5l.5-.5q3.15-1.65,3.6-3a8.467,8.467,0,0,1,1.4-1.9,4,4,0,0,0,1-1.8v-2.1c.5.5.9.7,1.3.4a34.472,34.472,0,0,1,2-3.2,31.122,31.122,0,0,1,2.3-2.8l2.1-2.2v1.1a45.8,45.8,0,0,0-3.4,4.3,37.021,37.021,0,0,0-3.1,5.5,4.281,4.281,0,0,1-1.5,1.8,4.44,4.44,0,0,0-1.1.8c-.2.4,0,.5.4.3a3.592,3.592,0,0,1,1-.7,21.089,21.089,0,0,0,4.2-4.7V99.3l.5-.8c0,.8,0,1.3.2,1.4s.4-.2.8-.8,1.1-2.2,2.3-4.8a2.562,2.562,0,0,0,0,2.1,2.151,2.151,0,0,0-.6,2.6Zm10-9.8a3.96,3.96,0,0,1-.7,1.9q-1.8,2.1-1.5,2.4a1.854,1.854,0,0,1-.2,1.9,22.255,22.255,0,0,1-2.6,2.7c.3.6,0,1.1-.7,1.5a25.5,25.5,0,0,1-2.9,1.3,9.365,9.365,0,0,0,3.6-4.7,3.858,3.858,0,0,1,1.7-1.1c.4-.3.5-.4.2-.4a9.5,9.5,0,0,0-1.7,1A12.337,12.337,0,0,0,71,93.4a11.332,11.332,0,0,0,2.2-2.7c.4-.6.4-.8,0-.4a12.065,12.065,0,0,1-2.1,2.4c.4-1.4.8-2.9,1.1-4.3.1-.9,0-1.1-.1-.5l-.4,1.6a3.694,3.694,0,0,0-.7-1.4l.6,1.9a29.921,29.921,0,0,1-.8,3.2A11.992,11.992,0,0,0,69.2,90q-.9-1.2-.3,0a11.31,11.31,0,0,1,1.7,3.9,17.352,17.352,0,0,1-1.3,3.6,3.838,3.838,0,0,0-1.1-1.1q-.45-.15,0,.3a3.449,3.449,0,0,1,.9,1.2,7.894,7.894,0,0,1-1.4,2.3,12.878,12.878,0,0,1-1.7,1.6,5.121,5.121,0,0,0,.8-3.8q0-.3.6-.6c.4-.2.5-.3.4-.5a4.284,4.284,0,0,1-.5-1.6,1.645,1.645,0,0,1,1,.2c.4-.3.3-.7-.1-1.1a3.981,3.981,0,0,1-.9-2.1c0-.5.4-.7,1.1-.6.3,0,.4-.4,0-1.2l-.8-1c-.5-1.2-.3-1.6.7-1.3l1.2.7c.8.3,1.1-.2,1.1-1.6,0-.3.2-.4.7-.2.5.1.9-.2,1.3-1q.6-.6.9,1.2c0,1.6.3,2.4,1.2,2.3C74.7,89.3,74.7,89.8,74.6,90.6ZM76,86.7a.778.778,0,0,1-.2.8,1.905,1.905,0,0,1-1,.5l-.5-.9a3.139,3.139,0,0,0-.7-2.1,3.128,3.128,0,0,1,1-.5c.3-.1.3-.2-.2-.1a3.582,3.582,0,0,0-1.1.4h0a8.449,8.449,0,0,1,1.3-2.7q.15-.6-.3,0a17.611,17.611,0,0,0-1.4,2.3,1.777,1.777,0,0,1-.4-1q-.15-.9-.3,0a4.191,4.191,0,0,0,.4,1.5q-1.05,1.5-1.5,1.2a39.786,39.786,0,0,1,.9-4.5c.7-.7,1.3-.9,1.8-.7q1.05-.9,1.8-.3a3.258,3.258,0,0,1,.4,1.3,2.976,2.976,0,0,1-.5,1.5c.6,0,.9.2.9.7a3.413,3.413,0,0,1-1.5,2.2c.7-.2,1,.1,1.1.4Z" fill="#039" fill-rule="evenodd"/>
    <path id="Tracciato_2380" data-name="Tracciato 2380" d="M33.8,118.2a2.384,2.384,0,0,0,1.1-.6l.2.3-.2-1.5h0c0,.8-.2,1.4-.9,1.6s-1.4-.9-1.6-1.9,0-2.2,1-2.3c.6-.1,1.1.4,1.3,1.1h0l-.2-1.3h0v.3a1.721,1.721,0,0,0-1.2-.2c-1.1,0-1.7,1.2-1.5,2.4A1.964,1.964,0,0,0,34,118" fill="#039"/>
    <path id="Tracciato_2381" data-name="Tracciato 2381" d="M45.7,113.8v.2c.2,0,.4,0,.4.3v.8l-.3,1.9a2.353,2.353,0,0,1-.2.8c0,.2-.3.2-.5.2h.8a1.2,1.2,0,0,1,.8.2V118c-.2,0-.4,0-.4-.3v-.8l.2-1.9a1.2,1.2,0,0,1,.2-.8.646.646,0,0,1,.5-.2h-.8a1.445,1.445,0,0,1-.7-.2" fill="#039"/>
    <path id="Tracciato_2382" data-name="Tracciato 2382" d="M30.1,114.8v.8l.3,1.9v.8c0,.2-.2.3-.4.3h0a2.2,2.2,0,0,0,.8-.1h1v-.2c-.2,0-.4,0-.5-.2a1.884,1.884,0,0,1-.2-.8l-.2-1.9a1.1,1.1,0,0,1,0-.8c.1-.2.2-.3.4-.3h0c-.2,0-.5.1-.8.1h-.8a.764.764,0,0,1,.5.2" fill="#039"/>
    <path id="Tracciato_2383" data-name="Tracciato 2383" d="M8.4,111.7a1.212,1.212,0,0,0,1.5-.2v-.1c.5-.7,0-1.2-.4-1.6a1,1,0,0,0-.5-.4c-.3-.2-.5-.4-.8-.6v.2s.3.2.2.4a4.233,4.233,0,0,1-.5.7l-1.1,1.5c-.1.3-.4.5-.6.7-.2.1-.3,0-.5,0h0a1.794,1.794,0,0,1,.7.5c.2,0,.4.3.6.4H7c-.2,0-.3-.2-.3-.4s.4-.6.5-.8l.4-.7c.2.2.2.2.2.5v2.1s.3,0,.4.2l.3.3h0c-.2-.2-.2-.3-.2-.6Zm-.6-.6.9-1.2h.2c.1.1.2.1.3.2a.776.776,0,0,1,0,1.1c-.3.4-.9.4-1.4-.1" fill="#039"/>
    <path id="Tracciato_2384" data-name="Tracciato 2384" d="M25.7,117.5a1.077,1.077,0,0,0-.8-.2.921.921,0,0,0,.7-1.1c0-.8-.8-.9-1.4-.8-.2,0-.4.1-.6.1h-.8c.2,0,.4,0,.5.2a1.884,1.884,0,0,1,.2.8l.2,1.9c0,.2.1.6.1.8s-.3.3-.4.3v.2a2.92,2.92,0,0,1,.9-.2c.2,0,.5,0,.6-.1a1.689,1.689,0,0,0,1-.3,1.284,1.284,0,0,0,.4-1,1.555,1.555,0,0,0-.6-.8M24,115.5a.367.367,0,0,0,.3-.1c.4,0,.6.2.7.7a1.077,1.077,0,0,1-.2.8.781.781,0,0,0-.5.2h-.1l-.2-1.3Zm1,3.7c-.2,0-.4,0-.5-.2s0-.5-.2-.7v-.9h.9a1.234,1.234,0,0,1,.4.8.876.876,0,0,1-.5,1h0" fill="#039"/>
    <path id="Tracciato_2385" data-name="Tracciato 2385" d="M26.7,119.2h0a26.956,26.956,0,0,0,2.8-.4h.3l-.1-1.2h-.2a1.077,1.077,0,0,1-.2.8,2.118,2.118,0,0,1-.7.3c-.7,0-.9,0-1-.9l-.2-1.9V115c0-.2.3-.2.5-.2v-.2a1.1,1.1,0,0,1-.8,0,1.1,1.1,0,0,1-.8,0v.2a.454.454,0,0,1,.5,0v.9l.3,1.8v.9c0,.2-.2.2-.4.3" fill="#039"/>
    <path id="Tracciato_2386" data-name="Tracciato 2386" d="M22.5,117.9a1.1,1.1,0,0,0-.8,0,1.007,1.007,0,0,0,.6-1.1,1.033,1.033,0,0,0-1.2-.9h-.2a1.7,1.7,0,0,1-.7.1h-.7v.2a.446.446,0,0,1,.5,0c.1.1,0,.7,0,.9l.3,1.8v.9c0,.2-.3.2-.5.3h1a.854.854,0,0,1,.7,0,1.613,1.613,0,0,0,.9-.3,1.244,1.244,0,0,0,.1-1.7l-.2-.2m-1.9-1.5v-.2h.3c.5,0,.7.2.8.7s0,.5-.2.7a.551.551,0,0,1-.5.2h-.2Zm1.2,3.4a.446.446,0,0,1-.5,0,2.354,2.354,0,0,1-.2-.8v-.8h0a1.1,1.1,0,0,1,.8,0c.3,0,.4.4.5.7,0,.3,0,1-.6.9" fill="#039"/>
    <path id="Tracciato_2387" data-name="Tracciato 2387" d="M36.6,117.7v-.2c-.2,0-.5,0-.5-.2v-1.2l1.3-.2.4.7v.4c0,.3-.2.3-.3.4h.8a1.483,1.483,0,0,1,.7-.1V117a.454.454,0,0,1-.5,0,2.507,2.507,0,0,1-.4-.7l-1.5-3.2h0l-.5,2.7a3.178,3.178,0,0,1-.2,1.3c0,.2-.2.4-.5.5H36Zm0-3.6.8,1.6-1.1.1Z" fill="#039"/>
    <path id="Tracciato_2388" data-name="Tracciato 2388" d="M62.6,118.6a.663.663,0,0,1-.2.7h0c.2-.1.3-.2.5-.3s.3-.2.5-.3h0s-.4.2-.5,0a3.553,3.553,0,0,1-.2-1v-.2l1.2-.6.5.4c.2,0,.3.3.4.4s0,.4-.3.4l.1.2a1.612,1.612,0,0,1,.7-.4,1.612,1.612,0,0,1,.7-.4h0a.454.454,0,0,1-.5,0,2.651,2.651,0,0,1-.6-.5l-2.6-2.3H62l.5,2.7a5.067,5.067,0,0,1,.2,1.3m1.1-1.9-1,.5-.3-1.7Z" fill="#039"/>
    <path id="Tracciato_2389" data-name="Tracciato 2389" d="M64.5,113.7l1.4,2a1.794,1.794,0,0,1,.5.7c.1.3,0,.4-.2.6h0a1.756,1.756,0,0,1,.5-.4,1,1,0,0,0,.5-.4v-.1a.661.661,0,0,1-.6.1,4.349,4.349,0,0,1-.6-.7l-1.3-1.8,3.6,1.1a1.421,1.421,0,0,0,.6.2h0l-1.6-2.2c-.2-.3-.6-.8-.7-1s0-.3.2-.5h0a.781.781,0,0,0-.4.4l-.6.3v.1c.3-.1.4-.2.7,0s.4.6.6.8l1.1,1.5-3.9-1.2a.758.758,0,0,1-.4.2c0,.2-.2.2-.4.3v.2a.616.616,0,0,1,.7-.1" fill="#039"/>
    <path id="Tracciato_2390" data-name="Tracciato 2390" d="M15.4,115.5a1.1,1.1,0,0,0-.2-1.5.31.31,0,0,0-.2-.1c-.2-.1-.4-.3-.6-.4-.2-.2-.5-.3-.7-.5h0a.35.35,0,0,1,.3.5,3.039,3.039,0,0,0-.5.7l-1,1.5c-.1.3-.4.5-.6.7,0,.2-.3,0-.5,0v.2c.2,0,.4.3.6.4.2.2.5.3.7.5h0c-.2-.3-.3-.3-.3-.6a2.01,2.01,0,0,1,.4-.8l.5-.6s.2.2.3.2a1.04,1.04,0,0,0,1.6,0l.2-.2m-.6-.3c-.3.5-.7.6-1.1.3s-.2,0-.2-.2l.8-1.2c.2-.3.2-.3.4,0,.4.2.4.7.1,1.1l-.1.1" fill="#039"/>
    <path id="Tracciato_2391" data-name="Tracciato 2391" d="M69.6,113.9c0,.3,0,.4-.2.6l.1.2c0-.2.3-.3.4-.4l.5-.3-.1-.2s-.3.3-.5,0a1.689,1.689,0,0,1-.3-1h0l1.1-.8.6.4c.1.1.3.2.4.3a.365.365,0,0,1-.2.5v.1c.2-.2.4-.3.6-.5a2.092,2.092,0,0,1,.6-.4v-.2a.637.637,0,0,1-.6,0,2.092,2.092,0,0,1-.6-.4l-3-1.8v.1l.8,2.6a5.637,5.637,0,0,1,.4,1.2m.8-2.1-.9.7-.6-1.7Z" fill="#039"/>
    <path id="Tracciato_2392" data-name="Tracciato 2392" d="M18.2,115.8v.2s.3.2,0,.5a5.73,5.73,0,0,1-1.1,1.1l-1.3,1,.4-1.7c.1-.3.4-1.3.5-1.5s.4-.1.5,0v-.1a1.205,1.205,0,0,1-.5-.5c-.2,0-.4-.3-.6-.4h0c.3.3.2.6.1,1l-.9,3.6h.2l2.5-1.8c.4-.3.8-.8,1.2-.5h0c-.2-.1-.3-.2-.5-.3a1.756,1.756,0,0,1-.5-.4" fill="#039"/>
    <path id="Tracciato_2393" data-name="Tracciato 2393" d="M57.9,120.2l.3-1.2H58c0,.4,0,.6-.5.8s-.5,0-.8,0-.7-.3-.6-1.1l.3-1.9a1.486,1.486,0,0,1,.2-.9c.2-.2.4,0,.5,0v-.2a1.387,1.387,0,0,1-.9,0h-.7a.55.55,0,0,1,.5.3v.9l-.3,1.8a2.353,2.353,0,0,0-.2.8.735.735,0,0,1-.6.2h0a17.067,17.067,0,0,1,3,.5H58" fill="#039"/>
    <path id="Tracciato_2394" data-name="Tracciato 2394" d="M11.5,115.4c-.5.5-.8.4-1.3,0a.675.675,0,0,1-.4-.6c0-.2.2-.4.3-.6l.6-.9c.5.3.7.5.3,1.1h0c.2-.2.3-.5.5-.7.1-.2.3-.4.5-.7h0c-.3.3-.6.6-1.2,0l.9-1.3c.2-.2.2-.2.3,0l.3.2c.5.4.7.6.3,1.2h0l.6-.8-2.1-1.5h-.2a.35.35,0,0,1,.3.5c-.2.2-.3.5-.5.7l-1,1.4-.7.7a.446.446,0,0,1-.5,0h0l2.4,1.8.6-.9Z" fill="#039"/>
    <path id="Tracciato_2395" data-name="Tracciato 2395" d="M53.9,119.1a1.2,1.2,0,0,0-.2-.8l-.7-3.4h-.2l-1.2,2.4-.6,1.2c-.2.3-.3.4-.6.4h1.2a.392.392,0,0,1-.4-.4l.4-.9v-.2l1.4.2v1.3c0,.2-.3.1-.4.1v.2a1.1,1.1,0,0,1,.8,0h.8c-.2,0-.3,0-.4-.3m-1.9-1.7.8-1.6.3,1.8Z" fill="#039"/>
    <path id="Tracciato_2396" data-name="Tracciato 2396" d="M51.2,115.6h0l.2-.8-3.4-.6-.2,1H48c0-.8.3-.8.9-.7.2,0,.5,0,.4.2l-.4,3.1c0,.5-.2.6-.8.6H49a2.92,2.92,0,0,0,.9.2h0c-.5-.2-.5-.3-.5-.8l.5-3.1c0-.2.3,0,.6,0a.983.983,0,0,1,.7.9" fill="#039"/>
    <path id="Tracciato_2397" data-name="Tracciato 2397" d="M59.7,116.2v.8l.1,1.9v.8c0,.2-.3.3-.4.3v.1a1.949,1.949,0,0,0,.8-.1H61c-.2,0-.4,0-.5-.2v-.9l-.2-1.8v-.9c0-.2.3-.2.5-.2v-.2c-.3,0-.5.1-.8.1h-.8v.2c.1,0,.4,0,.5.1" fill="#039"/>
  </g>
</svg>
