<svg xmlns="http://www.w3.org/2000/svg" xmlns:xlink="http://www.w3.org/1999/xlink" width="43.122" height="42.478" viewBox="0 0 43.122 42.478">
  <defs>
    <clipPath id="clip-path">
      <rect id="Rettangolo_459" data-name="Rettangolo 459" width="43.122" height="42.478" fill="#fff"/>
    </clipPath>
    <clipPath id="clip-path-2">
      <rect id="Rettangolo_467" data-name="Rettangolo 467" width="19.083" height="9.508" fill="none"/>
    </clipPath>
  </defs>
  <g id="Raggruppa_830" data-name="Raggruppa 830" transform="translate(-3128 925.021)">
    <g id="Raggruppa_829" data-name="Raggruppa 829" transform="translate(3128 -925.021)">
      <g id="Raggruppa_828" data-name="Raggruppa 828" clip-path="url(#clip-path)">
        <path id="Tracciato_2054" data-name="Tracciato 2054" d="M0,5.859a34.749,34.749,0,0,0,8.862-.839,26.806,26.806,0,0,0,9.8-4.677,1.2,1.2,0,0,1,1.6-.077c1.778,1.071,3.609,2.052,5.485,3.105L24.265,5.859c-1.4-.8-2.8-1.625-4.226-2.382a1.243,1.243,0,0,0-1.066-.042,24.036,24.036,0,0,1-15.6,4.946,1.553,1.553,0,0,0-.3.051,1.556,1.556,0,0,0-.094.363c-.091,6.82.625,13.487,3.862,19.646A22.273,22.273,0,0,0,18.646,39.05a2.477,2.477,0,0,0,1.706-.025c7.23-3.039,11.766-8.482,14.045-15.906l.268-.874,2.875-.3c-.278.926-.512,1.767-.783,2.6A27.639,27.639,0,0,1,20.341,42.324a2.518,2.518,0,0,1-1.712.01C9.813,38.867,4.53,32.264,1.94,23.327A48.061,48.061,0,0,1,.159,12.273,9.68,9.68,0,0,0,0,11.242V5.859" transform="translate(0 -0.001)" fill="#fff"/>
        <path id="Tracciato_2055" data-name="Tracciato 2055" d="M146.768,28.417A8.209,8.209,0,1,1,146.584,12a8.009,8.009,0,0,1,8.257,8.188,7.987,7.987,0,0,1-8.074,8.229m-1.34-3.712,5.91-8.946a2.217,2.217,0,0,0-3.021.848c-1,1.265-1.984,2.543-2.98,3.823a3.212,3.212,0,0,0-.783-.626,11.531,11.531,0,0,0-2.152-.566c-.2-.029-.509.341-.659.593-.049.082.228.389.391.561a22.336,22.336,0,0,1,1.709,1.8c.6.8,1.081,1.7,1.585,2.518" transform="translate(-111.721 -9.683)" fill="#1ac734"/>
        <g id="Raggruppa_848" data-name="Raggruppa 848" transform="translate(9.229 16.485)">
          <g id="Raggruppa_847" data-name="Raggruppa 847" transform="translate(0 0)" clip-path="url(#clip-path-2)">
            <path id="Tracciato_2087" data-name="Tracciato 2087" d="M.3,7.922a4.221,4.221,0,0,0,2.134.6c1.218,0,1.929-.643,1.929-1.573,0-.862-.492-1.355-1.738-1.833C1.122,4.583.192,3.8.192,2.5.192,1.067,1.382,0,3.174,0A4.188,4.188,0,0,1,5.213.452l-.328.971A3.676,3.676,0,0,0,3.133.985C1.875.985,1.4,1.738,1.4,2.367c0,.862.561,1.286,1.834,1.778,1.56.6,2.353,1.355,2.353,2.709,0,1.423-1.053,2.654-3.229,2.654A4.766,4.766,0,0,1,0,8.92Z" transform="translate(0 0)" fill="#fff"/>
            <path id="Tracciato_2088" data-name="Tracciato 2088" d="M17.855,7.922a4.221,4.221,0,0,0,2.134.6c1.218,0,1.929-.643,1.929-1.573,0-.862-.492-1.355-1.738-1.833-1.5-.534-2.435-1.313-2.435-2.613,0-1.436,1.19-2.5,2.983-2.5a4.188,4.188,0,0,1,2.039.452l-.328.971A3.676,3.676,0,0,0,20.687.985c-1.258,0-1.738.753-1.738,1.382,0,.862.561,1.286,1.834,1.778,1.56.6,2.353,1.355,2.353,2.709,0,1.423-1.053,2.654-3.229,2.654a4.766,4.766,0,0,1-2.353-.588Z" transform="translate(-10.811 0)" fill="#fff"/>
            <path id="Tracciato_2089" data-name="Tracciato 2089" d="M36.321.392h1.19V8.614h3.94v1h-5.13Z" transform="translate(-22.368 -0.241)" fill="#fff"/>
          </g>
        </g>
      </g>
    </g>
  </g>
</svg>
