<svg xmlns="http://www.w3.org/2000/svg" xmlns:xlink="http://www.w3.org/1999/xlink" width="180" height="51" viewBox="0 0 180 51">
  <defs>
    <clipPath id="clip-path">
      <rect id="Rettangolo_728" data-name="Rettangolo 728" width="113.967" height="41.926" fill="none"/>
    </clipPath>
  </defs>
  <g id="Raggruppa_1579" data-name="Raggruppa 1579" transform="translate(-2232 2021)">
    <rect id="Rettangolo_719" data-name="Rettangolo 719" width="180" height="51" transform="translate(2232 -2021)" fill="#fff"/>
    <rect id="Rettangolo_720" data-name="Rettangolo 720" width="180" height="51" transform="translate(2232 -2021)" fill="#fff"/>
    <g id="Raggruppa_1578" data-name="Raggruppa 1578" transform="translate(2265 -2016)">
      <g id="Raggruppa_1578-2" data-name="Raggruppa 1578" clip-path="url(#clip-path)">
        <path id="Tracciato_3876" data-name="Tracciato 3876" d="M112.672,14.059a9.348,9.348,0,0,0-7.544-5.9C98.344,7.038,91.589,5.735,84.819,4.527Q75.085,2.789,65.343,1.1A47.068,47.068,0,0,0,57.09,0c-1.219.1-2.454.11-3.655.314q-9.989,1.7-19.963,3.479c-8.42,1.492-16.832,3.027-25.255,4.5a8.675,8.675,0,0,0-5.594,3.432A13.173,13.173,0,0,0,.194,22.1q1.15,7.646,8.645,9.423c7.229,1.71,14.474,3.353,21.712,5.026q10.2,2.358,20.4,4.724a22.129,22.129,0,0,0,10.246.1c3.953-.926,7.947-1.677,11.911-2.558Q84.223,36.342,95.325,33.8c3.72-.849,7.431-1.742,11.141-2.637a7.937,7.937,0,0,0,4.41-2.827c3.5-4.382,3.925-9.226,1.8-14.279" transform="translate(0 0)" fill="#a40da8"/>
        <path id="Tracciato_3877" data-name="Tracciato 3877" d="M610.171,93.784c-.564,2.032-3.4,3.731-5.653,3.467a6.1,6.1,0,0,1-5.544-5.852,6.008,6.008,0,0,1,5.082-5.986,5.814,5.814,0,0,1,6.217,3.523c-1.039-.166-2.05.367-2.985-.553a3.43,3.43,0,0,0-4.584-.213,3.976,3.976,0,0,0-1.049,4.961,3.57,3.57,0,0,0,5.771.984,1.324,1.324,0,0,1,.8-.318c.626-.046,1.258-.015,1.948-.015" transform="translate(-525.601 -74.882)" fill="#fff"/>
        <path id="Tracciato_3878" data-name="Tracciato 3878" d="M477.415,108.3a4.572,4.572,0,0,1-.014,9.144,4.572,4.572,0,0,1,.014-9.144m2.417,4.614a2.437,2.437,0,1,0-4.85-.014,2.429,2.429,0,1,0,4.85.014" transform="translate(-414.923 -95.031)" fill="#fff"/>
        <path id="Tracciato_3879" data-name="Tracciato 3879" d="M329.138,94.356c.755-1.112,1.522-2.215,2.256-3.34a.85.85,0,0,1,.851-.441c.568.031,1.139.008,1.912.008l-3.094,4.222,3.483,4.371c-.966,0-1.783.021-2.6-.02-.144-.007-.293-.26-.411-.42-.8-1.1-1.6-2.208-2.52-3.479,0,1.162,0,2.143,0,3.124,0,.822,0,.822-.83.823-1.308,0-1.308,0-1.308-1.331V87.806h2.112v6.522Z" transform="translate(-286.839 -77.05)" fill="#fff"/>
        <path id="Tracciato_3880" data-name="Tracciato 3880" d="M773.736,110.413c.773,0,1.463-.026,2.149.021.145.01.332.263.4.441.529,1.431,1.032,2.872,1.545,4.309.047.133.1.263.206.534.114-.276.188-.444.252-.615.531-1.409,1.068-2.816,1.586-4.23a.589.589,0,0,1,.66-.473c.6.031,1.2.008,1.9.008-.106.292-.164.481-.242.661-1.464,3.4-2.939,6.8-4.387,10.211a.784.784,0,0,1-.905.586c-.5-.046-1.011-.01-1.644-.01a23.8,23.8,0,0,1,1.026-2.358,2.707,2.707,0,0,0,.033-2.682c-.851-1.892-1.576-3.84-2.35-5.766-.073-.183-.131-.371-.224-.637" transform="translate(-678.957 -96.875)" fill="#fff"/>
        <path id="Tracciato_3881" data-name="Tracciato 3881" d="M250.371,114.329c-.312,1.889-2.488,3.306-4.7,3.117a4.6,4.6,0,0,1-4.078-4.582,4.531,4.531,0,0,1,3.971-4.533c2.324-.191,4.465,1.177,4.809,3.158-.717,0-1.42.014-2.122-.013-.124,0-.271-.163-.358-.286a2.05,2.05,0,0,0-2.122-.9,2.257,2.257,0,0,0-1.913,1.666,2.573,2.573,0,0,0,2.272,3.519,1.833,1.833,0,0,0,1.607-.72,1.022,1.022,0,0,1,.987-.435c.544.031,1.09.007,1.645.007" transform="translate(-212 -95.046)" fill="#fff"/>
        <path id="Tracciato_3882" data-name="Tracciato 3882" d="M89.859,96.033c.649,0,1.258-.024,1.862.017.144.01.318.21.4.364a.813.813,0,0,0,1.065.468,1.736,1.736,0,0,0,.69-.817,1.893,1.893,0,0,0,.042-.785c0-2.427.013-4.854-.009-7.281,0-.5.134-.666.65-.66,1.587.018,1.587,0,1.587,1.608,0,2.2.012,4.406,0,6.608a3.135,3.135,0,0,1-2.135,3.284,3.1,3.1,0,0,1-4.149-2.8" transform="translate(-78.852 -76.639)" fill="#fff"/>
        <path id="Tracciato_3883" data-name="Tracciato 3883" d="M555.313,90.243l.934-.085c0-.765.016-1.513-.007-2.26-.012-.395.119-.55.524-.528.505.028,1.013.007,1.6.007v2.787l1.2.067v1.84h-1.17v6.742a17.232,17.232,0,0,1-1.809-.027c-.13-.014-.316-.367-.319-.566-.025-1.794-.015-3.588-.015-5.381v-.7l-.934-.076Z" transform="translate(-487.29 -76.666)" fill="#fff"/>
        <path id="Tracciato_3884" data-name="Tracciato 3884" d="M736.152,90.493c1.273.179,1.274.179,1.25,1.42,0,.159-.023.317-.038.52l-1.185.054v.671c0,1.814-.013,3.629.009,5.443.006.458-.143.591-.595.593-1.552.007-1.552.023-1.552-1.517V92.5l-.949-.08V90.608l.932-.079V87.784h2.128Z" transform="translate(-643.292 -77.031)" fill="#fff"/>
        <path id="Tracciato_3885" data-name="Tracciato 3885" d="M705.979,110.363c.016.261.037.439.037.618,0,2.464-.011,4.928.012,7.391,0,.481-.135.625-.618.623-1.528-.008-1.528.011-1.528-1.491,0-2.158.018-4.317-.012-6.475-.008-.551.171-.723.7-.674.442.04.891.008,1.41.008" transform="translate(-617.649 -96.83)" fill="#fff"/>
        <path id="Tracciato_3886" data-name="Tracciato 3886" d="M397.988,223.159c.136-.619.6-.411.941-.375.111.012.261.354.264.547.022,1.422.012,2.845.012,4.329-.459-.063-.952.313-1.242-.359a2.379,2.379,0,0,1-2.164.451,2.846,2.846,0,0,1-1.223-.846,2.773,2.773,0,0,1,.1-3.494c.842-.951,1.957-1.051,3.312-.253m.038,2.059a1.379,1.379,0,0,0-1.392-1.455,1.428,1.428,0,0,0-1.363,1.5,1.374,1.374,0,0,0,1.376,1.406,1.356,1.356,0,0,0,1.379-1.452" transform="translate(-345.741 -195.353)" fill="#fff"/>
        <path id="Tracciato_3887" data-name="Tracciato 3887" d="M540.411,227.7a2.58,2.58,0,0,1-2.6-2.655,2.605,2.605,0,1,1,5.209.1,2.523,2.523,0,0,1-2.613,2.558m1.346-2.616a1.346,1.346,0,1,0-2.677.056,1.341,1.341,0,1,0,2.677-.056" transform="translate(-471.935 -195.216)" fill="#fff"/>
        <path id="Tracciato_3888" data-name="Tracciato 3888" d="M495.78,227.479c0-1.539,0-3.043.009-4.548,0-.11.123-.309.194-.312a1.982,1.982,0,0,1,.992.194,5.322,5.322,0,0,1,.961-.351,1.889,1.889,0,0,1,2.18,1.787c.053.833.017,1.672.021,2.508,0,.222,0,.444,0,.716h-1.261c0-.569,0-1.133,0-1.7,0-.428.01-.859-.033-1.284-.06-.581-.421-.932-.893-.887a.887.887,0,0,0-.882.915c-.029.652-.028,1.3-.03,1.957,0,1.117,0,1.117-1.257,1" transform="translate(-435.049 -195.19)" fill="#fff"/>
        <path id="Tracciato_3889" data-name="Tracciato 3889" d="M352.871,225.908a2.391,2.391,0,0,1-2.791,1.742,2.622,2.622,0,0,1,.158-5.2,2.423,2.423,0,0,1,2.631,1.827c-.595.038-1.154.214-1.651-.385a1.178,1.178,0,0,0-1.7.114,1.606,1.606,0,0,0-.027,2.074,1.2,1.2,0,0,0,1.7.19c.516-.558,1.085-.379,1.68-.359" transform="translate(-305.253 -195.192)" fill="#fff"/>
        <path id="Tracciato_3890" data-name="Tracciato 3890" d="M442.352,225.929c.533.013,1.079-.286,1.423.388.061.119.393.136.6.127.085,0,.248-.222.226-.3a.816.816,0,0,0-.3-.459,7.544,7.544,0,0,0-.845-.344,1.419,1.419,0,0,1-.909-1.773,1.674,1.674,0,0,1,1.819-1.125,1.5,1.5,0,0,1,1.345,1.5c-.462-.009-.943.243-1.349-.241-.063-.075-.365.052-.556.085.07.16.1.395.22.465a8.532,8.532,0,0,0,.906.356,1.471,1.471,0,0,1,.71,2.265,1.811,1.811,0,0,1-2.043.732,1.627,1.627,0,0,1-1.239-1.681" transform="translate(-388.166 -195.183)" fill="#fff"/>
        <path id="Tracciato_3891" data-name="Tracciato 3891" d="M478.183,228.511h-1.269c0-.532,0-1.033,0-1.535,0-.979.012-1.958,0-2.936-.007-.483.312-.45.62-.435.279.013.655-.118.653.391,0,1.485,0,2.969,0,4.516" transform="translate(-418.491 -196.208)" fill="#fff"/>
        <path id="Tracciato_3892" data-name="Tracciato 3892" d="M705.681,87.412v1.953a6.779,6.779,0,0,1-1.771-.031c-.678-.192-.23-.866-.305-1.316-.03-.181.164-.564.287-.577a17.128,17.128,0,0,1,1.79-.028" transform="translate(-617.349 -76.697)" fill="#fff"/>
        <path id="Tracciato_3893" data-name="Tracciato 3893" d="M478.059,211.363h-1.346c.053-.384-.015-.849.18-1.029a.96.96,0,0,1,.953-.016c.2.176.146.642.213,1.045" transform="translate(-418.318 -184.451)" fill="#fff"/>
        <path id="Tracciato_3894" data-name="Tracciato 3894" d="M398.13,109.622a3.917,3.917,0,0,0-2.458-1.366,3.559,3.559,0,0,0-3.431,1.158l-.058-.934a11.663,11.663,0,0,1-1.263-.009c-.561-.063-.683.179-.681.694.018,3.364.008,6.728.012,10.092a6.457,6.457,0,0,0,.065.646c.231.01.392.022.553.024,1.54.015,1.54.014,1.54-1.528v-1.992a4.1,4.1,0,0,0,5.679-.452,4.878,4.878,0,0,0,.041-6.334m-3.4,5.755a2.467,2.467,0,0,1-2.432-2.586,2.509,2.509,0,0,1,2.462-2.641,2.581,2.581,0,0,1,2.4,2.608,2.54,2.54,0,0,1-2.429,2.619" transform="translate(-342.437 -94.947)" fill="#fff"/>
        <path id="Tracciato_3895" data-name="Tracciato 3895" d="M164,109.618c0-1.109,0-1.109-1.094-1.109-.86,0-.86,0-.939.876a4.08,4.08,0,0,0-6.2.615,4.861,4.861,0,0,0-.409,4.888,4.006,4.006,0,0,0,6.176,1.679c.134-.1.27-.189.551-.384-.278.9.139,1.011.732.95a2.36,2.36,0,0,1,.55,0c.525.071.648-.17.643-.662-.022-2.284-.01-4.569-.01-6.854m-4.484,5.789a2.5,2.5,0,0,1-2.486-2.549,2.585,2.585,0,0,1,2.515-2.68,2.5,2.5,0,0,1,2.429,2.611,2.456,2.456,0,0,1-2.458,2.618" transform="translate(-135.912 -94.976)" fill="#fff"/>
      </g>
    </g>
  </g>
</svg>
